{
    "ID":"3DD3",
    "dest":["3DD","2F2"],
    "title":"Différencier fonction affine et linéaire par la R.G.",
    "description":"Utiliser la représentation graphique pour déterminer si une fonction est affine non affine ou linéaire.",
    "type":"text",
    "repeat":2,
    "keys":["L","A","_","_","_","_","_","_"],
    "textSize":"small",
    "consts":{"vocab":["linéaire", "affine non linéaire"]},
    "vars":{"a":"d-2_2_1", "c":"-6_6_^0","choix":"0_1", "b":"${:choix*:c/2}", "type":"${:vocab[:choix]}"},
    "figure":{
        "type":"graph",
        "scale":2.5,
        "boundingbox":[-5,5,5,-5],
        "axis":true,
        "grid":true,
        "content" :[
                ["functiongraph","${:a}*x+${:b}"]
            ]    
        },
    "question":"La fonction représentée est elle linéaire (L) ou affine non linéaire (A) ?",
    "answer":"La fonction représentée est <span class='red'>${:type}</span>",
    "value":"${:type}"
}