{
    "title":"Calculs complexes avec des puissances",
    "description":"Combinaisons de produits, quotients et puissances.",
    "type":"latex",
    "ID":"3NB4",
    "textSize":"medium",
    "dest":["3NB","2N1"],
    "keys":["(","-","^","_","_","_","_","_"],
    "consigne":"Mettre sous la forme $$a^b$$",
    "options":[{
        "name":"Quotient et produit de puissances",
        "vars":{"a":"-10_10_3_^0","r":"${:a[0]+:a[1]-:a[2]}", "b":"-9_9_^0","bs":"${:b<0?'('+:b+')'::b}"},
        "question": ["\\dfrac{${:bs}^{${:a[0]}}\\times ${:bs}^{${:a[1]}}}{${:bs}^{${:a[2]}}}",
        "\\dfrac{${:bs}^{${:a[0]}}}{${:bs}^{${-:a[1]}}\\times ${:bs}^{${:a[2]}}}"]
    },{
        "name":"Quotient de produits de puissances",
        "vars":{"a":"-10_10_4_^0","r":"${:a[0]+:a[1]-:a[2]-:a[3]}", "b":"-9_9_^0","bs":"${:b<0?'('+:b+')'::b}"},
        "question": "\\dfrac{${:bs}^{${:a[0]}}\\times ${:bs}^{${:a[1]}}}{${:bs}^{${:a[2]}}\\times ${:bs}^{${:a[3]}}}"
    },{
        "name":"Puissance de produit de puissances",
        "vars":{"a":"-6_6_2_^0","a2":"-5_5","r":"${(:a[0]+:a[1])*:a2}", "b":"-9_9_^0","bs":"${:b<0?'('+:b+')'::b}"},
        "question": "\\left(${:bs}^{${:a[0]}}\\times ${:bs}^{${:a[1]}}\\right)^{${:a2}}"
    },{
        "name":"Puissance de quotient de puissances",
        "vars":{"a":"-6_6_2_^0","a2":"-5_5","r":"${(:a[0]-:a[1])*:a2}", "b":"-9_9_^0","bs":"${:b<0?'('+:b+')'::b}"},
        "question": "\\left(\\dfrac{${:bs}^{${:a[0]}}}{${:bs}^{${:a[1]}}}\\right)^{${:a2}}"
    }
    ],
    "answer":":question=\\color{red}{${(:r==0)?1:(:r==1)?:bs::bs+'^{'+:r+'}'}}",
    "value":"${(:r==0)?1:(:r==1)?:bs::bs+'^{'+:r+'}'}"
}