{
    "title":"Trouver la relation trigonométrique.",
    "type":"text",
    "textSize":"small",
    "ID":"4GB5",
    "description":"Déterminer s'il faut utiliser le sinus, le cosinus ou la tangente à partir des données connues dans un triangle rectangle.",
    "dest":["4GB","3GB","2G2"],
    "consts":{
        "lettres":"ABCDEFGHIJKLMNPRSTVW",
        "figures":[
            ["<svg width=\"15em\" height=\"9em\" viewBox=\"0 0 52.9 26.5\" xmlns=\"http://www.w3.org/2000/svg\"><path d=\"M15.41 7.198a3.037 3.052 5.338 01-2.708 1.642l.015-3.05z\" fill=\"#ff0003\"/><g font-family=\"Arial\" font-size=\"4.23\" letter-spacing=\"0\" stroke-width=\".265\" word-spacing=\"0\"><text x=\"8.96\" y=\"5.084\" style=\"line-height:1.25\"><tspan x=\"8.96\" y=\"5.084\">${:A}</tspan></text><text x=\"40.906\" y=\"21.604\" style=\"line-height:1.25\"><tspan x=\"40.906\" y=\"21.604\">${:B}</tspan></text><text x=\"8.864\" y=\"22.89\" style=\"line-height:1.25\"><tspan x=\"8.864\" y=\"22.89\">${:C}</tspan></text></g><g fill=\"none\" stroke=\"#000\" stroke-width=\".265\"><path d=\"M12.7 5.79v14.1h27.2z\"/><path stroke-linecap=\"round\" stroke-linejoin=\"round\" d=\"M12.7 18.7h1.23v1.23H12.7z\"/></g></svg>",
            "<svg width=\"15em\" height=\"9em\" viewBox=\"0 0 52.9 26.5\" xmlns=\"http://www.w3.org/2000/svg\"><path d=\"M35.552 7.96a4.886 4.903 85.69 01-.537-2.25l4.898.02z\" fill=\"#ff0003\"/><g font-family=\"Arial\" font-size=\"4.23\" letter-spacing=\"0\" stroke-width=\".265\" word-spacing=\"0\"><text x=\"41.366\" y=\"6.025\" style=\"line-height:1.25\"><tspan x=\"41.366\" y=\"6.025\">${:A}</tspan></text><text x=\"9.728\" y=\"23.504\" style=\"line-height:1.25\"><tspan x=\"9.728\" y=\"23.504\">${:B}</tspan></text><text x=\"9.114\" y=\"5.487\" style=\"line-height:1.25\"><tspan x=\"9.114\" y=\"5.487\">${:C}</tspan></text></g><g fill=\"none\" stroke=\"#000\" stroke-width=\".265\"><path d=\"M12.7 19.81V5.71h27.2z\"/><path stroke-linecap=\"round\" stroke-linejoin=\"round\" d=\"M12.7 6.9h1.23V5.67H12.7z\"/></g></svg>",
            "<svg width=\"15em\" height=\"9em\" viewBox=\"0 0 52.9 26.5\" xmlns=\"http://www.w3.org/2000/svg\"><path d=\"M37.061 18.484a3.038 3.051 3.504 012.715-1.632l-.024 3.049z\" fill=\"#ff0003\"/><g font-family=\"Arial\" font-size=\"4.23\" letter-spacing=\"0\" stroke-width=\".265\" word-spacing=\"0\"><text x=\"40.484\" y=\"22.161\" style=\"line-height:1.25\"><tspan x=\"40.484\" y=\"22.161\">${:A}</tspan></text><text x=\"8.922\" y=\"5.084\" style=\"line-height:1.25\"><tspan x=\"8.922\" y=\"5.084\">${:B}</tspan></text><text x=\"39.908\" y=\"5.142\" style=\"line-height:1.25\"><tspan x=\"39.908\" y=\"5.142\">${:C}</tspan></text></g><g fill=\"none\" stroke=\"#000\" stroke-width=\".265\"><path d=\"M39.7 19.81V5.71H12.5z\"/><path stroke-linecap=\"round\" stroke-linejoin=\"round\" d=\"M39.7 6.9h-1.23V5.67h1.23z\"/></g></svg>",
            "<svg width=\"15em\" height=\"9em\" viewBox=\"0 0 52.9 26.5\" xmlns=\"http://www.w3.org/2000/svg\"><path d=\"M17.077 17.593a5.033 5.018 3.739 01.527 2.342l-5.031-.102z\" fill=\"#ff0003\"/><g font-family=\"Arial\" font-size=\"4.23\" letter-spacing=\"0\" stroke-width=\".265\" word-spacing=\"0\"><text x=\"9.056\" y=\"22.621\" style=\"line-height:1.25\"><tspan x=\"9.056\" y=\"22.621\">${:A}</tspan></text><text x=\"40.177\" y=\"5.602\" style=\"line-height:1.25\"><tspan x=\"40.177\" y=\"5.602\">${:B}</tspan></text><text x=\"40.752\" y=\"22.333\" style=\"line-height:1.25\"><tspan x=\"40.752\" y=\"22.333\">${:C}</tspan></text></g><g fill=\"none\" stroke=\"#000\" stroke-width=\".265\"><path d=\"M39.8 5.79v14.1H12.6z\"/><path stroke-linecap=\"round\" stroke-linejoin=\"round\" d=\"M39.8 18.7h-1.23v1.23h1.23z\"/></g></svg>",
            "<svg width=\"15em\" height=\"9em\" viewBox=\"0 0 52.9 26.5\" xmlns=\"http://www.w3.org/2000/svg\"><path d=\"M36.094 18.62a5.485 5.505-29.266 01.638-2.568l4.849 2.586z\" fill=\"#ff0003\"/><g font-family=\"Arial\" font-size=\"4.23\" letter-spacing=\"0\" stroke-width=\".265\" word-spacing=\"0\"><text x=\"42.153\" y=\"20.415\" style=\"line-height:1.25\"><tspan x=\"42.153\" y=\"20.415\">${:A}</tspan></text><text x=\"7.54\" y=\"21.431\" style=\"line-height:1.25\"><tspan x=\"7.54\" y=\"21.431\">${:B}</tspan></text><text x=\"14.697\" y=\"5.027\" style=\"line-height:1.25\"><tspan x=\"14.697\" y=\"5.027\">${:C}</tspan></text></g><g fill=\"none\" stroke=\"#000\" stroke-width=\".265\"><path d=\"M10.894 18.619l6.5-12.507 24.127 12.54z\" stroke-width=\".2649046\"/><path stroke-linecap=\"round\" stroke-linejoin=\"round\" d=\"M16.846 7.168l1.09.567.568-1.091-1.091-.567z\" stroke-width=\".2649046\"/></g></svg>",
            "<svg width=\"15em\" height=\"9em\" viewBox=\"0 0 52.9 26.5\" xmlns=\"http://www.w3.org/2000/svg\"><path d=\"M38.215 18.69a3.038 3.052-20.888 011.663-2.697l1.377 2.72z\" fill=\"#ff0003\"/><g font-family=\"Arial\" font-size=\"4.23\" letter-spacing=\"0\" stroke-width=\".265\" word-spacing=\"0\"><text x=\"41.699\" y=\"20.725\" style=\"line-height:1.25\"><tspan x=\"41.699\" y=\"20.725\">${:A}</tspan></text><text x=\"6.723\" y=\"20.936\" style=\"line-height:1.25\"><tspan x=\"6.723\" y=\"20.936\">${:B}</tspan></text><text x=\"32.636\" y=\"5.18\" style=\"line-height:1.25\"><tspan x=\"32.636\" y=\"5.18\">${:C}</tspan></text></g><g fill=\"none\" stroke=\"#000\" stroke-width=\".265\"><path d=\"M41.215 18.764L34.814 6.201 10.578 18.55z\"/><path stroke-linecap=\"round\" stroke-linejoin=\"round\" d=\"M35.354 7.261l-1.096.559-.559-1.096 1.096-.559z\"/></g></svg>",
            "<svg width=\"15em\" height=\"9em\" viewBox=\"0 0 52.9 26.5\" xmlns=\"http://www.w3.org/2000/svg\"><path d=\"M15.788 5.965a5.035 5.019 23.863 01-.559 2.334l-4.474-2.307z\" fill=\"#ff0003\"/><g font-family=\"Arial\" font-size=\"4.23\" letter-spacing=\"0\" stroke-width=\".265\" word-spacing=\"0\"><text x=\"7.348\" y=\"5.334\" style=\"line-height:1.25\"><tspan x=\"7.348\" y=\"5.334\">${:A}</tspan></text><text x=\"42.211\" y=\"6.504\" style=\"line-height:1.25\"><tspan x=\"42.211\" y=\"6.504\">${:B}</tspan></text><text x=\"32.234\" y=\"22.525\" style=\"line-height:1.25\"><tspan x=\"32.234\" y=\"22.525\">${:C}</tspan></text></g><g fill=\"none\" stroke=\"#000\" stroke-width=\".265\"><path d=\"M41.366 6.011l-6.5 12.507-24.127-12.54z\" stroke-width=\".2649046\"/><path stroke-linecap=\"round\" stroke-linejoin=\"round\" d=\"M35.414 17.462l-1.09-.567-.568 1.091 1.091.567z\" stroke-width=\".2649046\"/></g></svg>",
            "<svg width=\"15em\" height=\"9em\" viewBox=\"0 0 52.9 26.5\" xmlns=\"http://www.w3.org/2000/svg\"><path d=\"M13.864 5.932a3.053 3.04 67.706 01-1.58 2.748l-1.46-2.677z\" fill=\"#ff0003\"/><g font-family=\"Arial\" font-size=\"4.23\" letter-spacing=\"0\" stroke-width=\".265\" word-spacing=\"0\"><text x=\"7.348\" y=\"5.334\" style=\"line-height:1.25\"><tspan x=\"7.348\" y=\"5.334\">${:A}</tspan></text><text x=\"42.211\" y=\"6.504\" style=\"line-height:1.25\"><tspan x=\"42.211\" y=\"6.504\">${:B}</tspan></text><text x=\"15.599\" y=\"22.563\" style=\"line-height:1.25\"><tspan x=\"15.599\" y=\"22.563\">${:C}</tspan></text></g><g fill=\"none\" stroke=\"#000\" stroke-width=\".265\"><path d=\"M10.889 5.988l6.51 12.507 24.127-12.56z\"/><path stroke-linecap=\"round\" stroke-linejoin=\"round\" d=\"M16.85 17.44l1.091-.568.568 1.09-1.091.569z\"/></g></svg>"
            ],
            ["<svg width=\"15em\" height=\"9em\" viewBox=\"0 0 52.9 26.5\" xmlns=\"http://www.w3.org/2000/svg\"><path d=\"M34.757 19.968a5.224 5.245-64.225 01.601-2.491l4.634 2.44z\" fill=\"#ff0003\"/><g font-family=\"Arial\" font-size=\"4.23\" letter-spacing=\"0\" stroke-width=\".265\" word-spacing=\"0\"><text x=\"8.96\" y=\"5.084\" style=\"line-height:1.25\"><tspan x=\"8.96\" y=\"5.084\">${:A}</tspan></text><text x=\"40.906\" y=\"21.604\" style=\"line-height:1.25\"><tspan x=\"40.906\" y=\"21.604\">${:B}</tspan></text><text x=\"8.864\" y=\"22.89\" style=\"line-height:1.25\"><tspan x=\"8.864\" y=\"22.89\">${:C}</tspan></text></g><g fill=\"none\" stroke=\"#000\" stroke-width=\".265\"><path d=\"M12.7 5.79v14.1h27.2z\"/><path stroke-linecap=\"round\" stroke-linejoin=\"round\" d=\"M12.7 18.7h1.23v1.23H12.7z\"/></g></svg>",
                "<svg width=\"15em\" height=\"9em\" viewBox=\"0 0 52.9 26.5\" xmlns=\"http://www.w3.org/2000/svg\"><path d=\"M12.733 16.661a3.283 3.267-57.822 012.712 1.704l-2.874 1.574z\" fill=\"#ff0003\"/><g font-family=\"Arial\" font-size=\"4.23\" letter-spacing=\"0\" stroke-width=\".265\" word-spacing=\"0\"><text x=\"41.366\" y=\"6.025\" style=\"line-height:1.25\"><tspan x=\"41.366\" y=\"6.025\">${:A}</tspan></text><text x=\"9.728\" y=\"23.504\" style=\"line-height:1.25\"><tspan x=\"9.728\" y=\"23.504\">${:B}</tspan></text><text x=\"9.114\" y=\"5.487\" style=\"line-height:1.25\"><tspan x=\"9.114\" y=\"5.487\">${:C}</tspan></text></g><g fill=\"none\" stroke=\"#000\" stroke-width=\".265\"><path d=\"M12.7 19.81V5.71h27.2z\"/><path stroke-linecap=\"round\" stroke-linejoin=\"round\" d=\"M12.7 6.9h1.23V5.67H12.7z\"/></g></svg>",
                "<svg width=\"15em\" height=\"9em\" viewBox=\"0 0 52.9 26.5\" xmlns=\"http://www.w3.org/2000/svg\"><path d=\"M17.14 5.697a4.642 4.627 25.041 01-.506 2.056l-4.141-2.116z\" fill=\"#ff0003\"/><g font-family=\"Arial\" font-size=\"4.23\" letter-spacing=\"0\" stroke-width=\".265\" word-spacing=\"0\"><text x=\"40.484\" y=\"22.161\" style=\"line-height:1.25\"><tspan x=\"40.484\" y=\"22.161\">${:A}</tspan></text><text x=\"8.922\" y=\"5.084\" style=\"line-height:1.25\"><tspan x=\"8.922\" y=\"5.084\">${:B}</tspan></text><text x=\"39.908\" y=\"5.142\" style=\"line-height:1.25\"><tspan x=\"39.908\" y=\"5.142\">${:C}</tspan></text></g><g fill=\"none\" stroke=\"#000\" stroke-width=\".265\"><path d=\"M39.7 19.81V5.71H12.5z\"/><path stroke-linecap=\"round\" stroke-linejoin=\"round\" d=\"M39.7 6.9h-1.23V5.67h1.23z\"/></g></svg>",
                "<svg width=\"15em\" height=\"9em\" viewBox=\"0 0 52.9 26.5\" xmlns=\"http://www.w3.org/2000/svg\"><path d=\"M39.844 8.955a3.165 3.175 45.14 01-2.85-1.72l2.83-1.44z\" fill=\"#ff0003\"/><g font-family=\"Arial\" font-size=\"4.23\" letter-spacing=\"0\" stroke-width=\".265\" word-spacing=\"0\"><text x=\"9.056\" y=\"22.621\" style=\"line-height:1.25\"><tspan x=\"9.056\" y=\"22.621\">${:A}</tspan></text><text x=\"40.177\" y=\"5.602\" style=\"line-height:1.25\"><tspan x=\"40.177\" y=\"5.602\">${:B}</tspan></text><text x=\"40.752\" y=\"22.333\" style=\"line-height:1.25\"><tspan x=\"40.752\" y=\"22.333\">${:C}</tspan></text></g><g fill=\"none\" stroke=\"#000\" stroke-width=\".265\"><path d=\"M39.8 5.79v14.1H12.6z\"/><path stroke-linecap=\"round\" stroke-linejoin=\"round\" d=\"M39.8 18.7h-1.23v1.23h1.23z\"/></g></svg>",
                "<svg width=\"15em\" height=\"9em\" viewBox=\"0 0 52.9 26.5\" xmlns=\"http://www.w3.org/2000/svg\"><path d=\"M12.331 15.964a3.02 3.008 3.375 011.637 2.686l-3.021-.013z\" fill=\"#ff0003\"/><g font-family=\"Arial\" font-size=\"4.23\" letter-spacing=\"0\" stroke-width=\".265\" word-spacing=\"0\"><text x=\"42.153\" y=\"20.415\" style=\"line-height:1.25\"><tspan x=\"42.153\" y=\"20.415\">${:A}</tspan></text><text x=\"7.54\" y=\"21.431\" style=\"line-height:1.25\"><tspan x=\"7.54\" y=\"21.431\">${:B}</tspan></text><text x=\"14.697\" y=\"5.027\" style=\"line-height:1.25\"><tspan x=\"14.697\" y=\"5.027\">${:C}</tspan></text></g><g fill=\"none\" stroke=\"#000\" stroke-width=\".265\"><path d=\"M10.894 18.619l6.5-12.507 24.127 12.54z\" stroke-width=\".2649046\"/><path stroke-linecap=\"round\" stroke-linejoin=\"round\" d=\"M16.846 7.168l1.09.567.568-1.091-1.091-.567z\" stroke-width=\".2649046\"/></g></svg>",
                "<svg width=\"15em\" height=\"9em\" viewBox=\"0 0 52.9 26.5\" xmlns=\"http://www.w3.org/2000/svg\"><path d=\"M14.559 16.618a4.472 4.457-1.494 01.385 2.002l-4.477-.187z\" fill=\"#ff0003\"/><g font-family=\"Arial\" font-size=\"4.23\" letter-spacing=\"0\" stroke-width=\".265\" word-spacing=\"0\"><text x=\"41.699\" y=\"20.725\" style=\"line-height:1.25\"><tspan x=\"41.699\" y=\"20.725\">${:A}</tspan></text><text x=\"6.723\" y=\"20.936\" style=\"line-height:1.25\"><tspan x=\"6.723\" y=\"20.936\">${:B}</tspan></text><text x=\"32.636\" y=\"5.18\" style=\"line-height:1.25\"><tspan x=\"32.636\" y=\"5.18\">${:C}</tspan></text></g><g fill=\"none\" stroke=\"#000\" stroke-width=\".265\"><path d=\"M41.215 18.764L34.814 6.201 10.578 18.55z\"/><path stroke-linecap=\"round\" stroke-linejoin=\"round\" d=\"M35.354 7.261l-1.096.559-.559-1.096 1.096-.559z\"/></g></svg>",
                "<svg width=\"15em\" height=\"9em\" viewBox=\"0 0 52.9 26.5\" xmlns=\"http://www.w3.org/2000/svg\"><path d=\"M39.761 9.083a3.527 3.541-89.282 01-1.886-3.118l3.546.001z\" fill=\"#ff0003\"/><g font-family=\"Arial\" font-size=\"4.23\" letter-spacing=\"0\" stroke-width=\".265\" word-spacing=\"0\"><text x=\"7.348\" y=\"5.334\" style=\"line-height:1.25\"><tspan x=\"7.348\" y=\"5.334\">${:A}</tspan></text><text x=\"42.211\" y=\"6.504\" style=\"line-height:1.25\"><tspan x=\"42.211\" y=\"6.504\">${:B}</tspan></text><text x=\"32.234\" y=\"22.525\" style=\"line-height:1.25\"><tspan x=\"32.234\" y=\"22.525\">${:C}</tspan></text></g><g fill=\"none\" stroke=\"#000\" stroke-width=\".265\"><path d=\"M41.366 6.011l-6.5 12.507-24.127-12.54z\" stroke-width=\".2649046\"/><path stroke-linecap=\"round\" stroke-linejoin=\"round\" d=\"M35.414 17.462l-1.09-.567-.568 1.091 1.091.567z\" stroke-width=\".2649046\"/></g></svg>",
                "<svg width=\"15em\" height=\"9em\" viewBox=\"0 0 52.9 26.5\" xmlns=\"http://www.w3.org/2000/svg\"><path d=\"M36.705 8.442A5.443 5.463-89.038 0136.13 5.9l5.462.111z\" fill=\"#ff0003\"/><g font-family=\"Arial\" font-size=\"4.23\" letter-spacing=\"0\" stroke-width=\".265\" word-spacing=\"0\"><text x=\"7.348\" y=\"5.334\" style=\"line-height:1.25\"><tspan x=\"7.348\" y=\"5.334\">${:A}</tspan></text><text x=\"42.211\" y=\"6.504\" style=\"line-height:1.25\"><tspan x=\"42.211\" y=\"6.504\">${:B}</tspan></text><text x=\"15.599\" y=\"22.563\" style=\"line-height:1.25\"><tspan x=\"15.599\" y=\"22.563\">${:C}</tspan></text></g><g fill=\"none\" stroke=\"#000\" stroke-width=\".265\"><path d=\"M10.889 5.988l6.51 12.507 24.127-12.56z\"/><path stroke-linecap=\"round\" stroke-linejoin=\"round\" d=\"M16.85 17.44l1.091-.568.568 1.09-1.091.569z\"/></g></svg>"
            ]
        ],
        "oA":["${:choixligne==0?:CA+' et '+:AB::choixligne==1?:BC+' et '+:AB::BC+' et '+:CA}","${:choixligne==0?:AB+' et '+:CA::choixligne==1?:AB+' et '+:BC::CA+' et '+:BC}"],
        "oB":["${:choixligne==0?:BC+' et '+:AB::choixligne==1?:CA+' et '+:AB::CA+' et '+:BC}","${:choixligne==0?:AB+' et '+:BC::choixligne==1?:AB+' et '+:CA::BC+' et '+:CA}"]
    },
    "options":[
        {
            "name":"À partir de 2 côtés",
            "vars":{"l":"0_19_3_^&","choixangle":"0_1","choixligne":"0_2", "A":"${:lettres[:l[0]]}", "B":"${:lettres[:l[1]]}", "C":"${:lettres[:l[2]]}", "idfig":"0_7", "AB":["${:A+:B}","${:B+:A}"],"BC":["${:B+:C}","${:C+:B}"],"CA":["${:C+:A}","${:A+:C}"],"cv":"0_1"},
            "question":"On connait <b>${:choixangle==0?:oA[:cv]::oB[:cv]}</b>. Sont-ils liés à $$\\color{red}{\\widehat{${:choixangle==0?:A::B}}}$$ par cosinus, sinus ou tangente&nbsp;?",
            "figure":{"type":"svg","content":"${:figures[:choixangle][:idfig]}"},
            "shortQ":"sin, cos ou tan relie ${:choixangle==0?:oA[:cv]::oB[:cv]} et $$\\color{red}{\\widehat{${:choixangle==0?:A::B}}}$$ ?",
            "answer":"$$\\color{red}{${:choixligne==0?'cosinus'::choixligne==1?'sinus':'tangente'}}$$ car $$\\color{green}{${:choixligne==0?'cos'::choixligne==1?'sin':'tan'}}(\\widehat{${:choixangle==0?:A::B}})=\\dfrac{${(:choixangle==0?:oA[0]::oB[0]).replace(' et ','}{')}}$$",
            "value":"${:choixligne==0?'cos'::choixligne==1?'sin':'tan'}"
        },
        {
            "name":"À partir de l'angle et d'un côté",
            "vars":{"l":"0_19_3_^&","choixangle":"0_1","choixligne":"0_2", "A":"${:lettres[:l[0]]}", "B":"${:lettres[:l[1]]}", "C":"${:lettres[:l[2]]}", "idfig":"0_7", "AB":["${:A+:B}","${:B+:A}"],"BC":["${:B+:C}","${:C+:B}"],"CA":["${:C+:A}","${:A+:C}"],"cv":"0_1"},
            "question":"On connait $$\\widehat{${:choixangle==0?:A::B}}$$ et <b>${(:choixangle==0?:oA[:cv]::oB[:cv]).split(' et ')[0]}</b>. Utilise-t-on cosinus, sinus ou tangente pour déterminer <b>${(:choixangle==0?:oA[:cv]::oB[:cv]).split(' et ')[1]}</b>&nbsp;?",
            "figure":{"type":"svg","content":"${:figures[:choixangle][:idfig]}"},
            "shortQ":"sin, cos ou tan avec ${:choixangle==0?:oA::oB} et ${(:choixangle==0?:oA::oB).split(' et ')[0]} pour trouver ${(:choixangle==0?:oA::oB).split(' et ')[1]} ?",
            "answer":"$$\\color{red}{${:choixligne==0?'cosinus'::choixligne==1?'sinus':'tangente'}}$$ car $$\\color{green}{${:choixligne==0?'cos'::choixligne==1?'sin':'tan'}}(\\widehat{${:choixangle==0?:A::B}})=\\dfrac{${(:choixangle==0?:oA[0]::oB[0]).replace(' et ','}{')}}$$",
            "value":"${:choixligne==0?'cos'::choixligne==1?'sin':'tan'}"
        }
    ]
    
}