{
    "title":"Ecriture scientifique et décimaux",
    "type":"text",
    "ID":"4NA1",
    "dest":["4NA","3NA", "2N1"],
    "keys":["_","-","×","10n"],
    "textSize":"small",
    "options":[{
        "name":"Donner l'écriture scientifique d'un décimal supérieur à 1",
        "vars":{
            "a":"1_3",
            "b":"d0_1_${:a}_^0,1",
            "i":"1_9",
            "c":"0_10",
            "d":"${math.round(Number(:i+:b+'e'+:c),4)}"
        },
        "question": "Quelle est l'écriture scientifique de $$${:d}$$ ?",
        "answer":"$$${:d}=\\color{red}{${math.round(:i+:b,4)}\\times10^{${:c}}}$$",
        "value":"${:i+:b}\\times10^{${:c}}"
    },
    {
        "name":"Donner l'écriture scientifique d'un décimal inférieur à 1",
        "vars":{
            "a":"1_3",
            "b":"d0_1_${:a}_^0,1",
            "i":"1_9",
            "c":"-6_-1",
            "d":"${math.round(Number(:i+:b+'e'+:c),13)}"
        },
        "question": "Quelle est l'écriture scientifique de $$${:d}$$ ?",
        "answer":"$$${:d}=\\color{red}{${math.round(:i+:b,4)}\\times10^{${:c}}}$$",
        "value":"${:i+:b}\\times10^{${:c}}"
    },{
        "name":"Donner l'écriture décimale à partir de l'écriture scientifique supérieure à 1",
        "vars":{
            "a":"1_3",
            "b":"d0_1_${:a}_^0",
            "i":"1_9",
            "c":"0_10",
            "d":"${math.round(Number(:i+:b+'e'+:c),6)}"
        },
        "question": "Quelle est l'écriture décimale de $$${math.round(:i+:b,7)}\\times 10^{${:c}}$$ ?",
        "answer":"$$${math.round(:i+:b,7)}\\times 10^{${:c}}=\\color{red}{${:d}}$$",
        "value":"${:d}"
    },{
        "name":"Donner l'écriture décimale à partir de l'écriture scientifique inférieure à 1",
        "vars":{
            "a":"1_3",
            "b":"d0_1_${:a}_^0",
            "i":"1_9",
            "c":"-6_-1",
            "d":"${math.round(Number(:i+:b+'e'+:c),13)}"
        },
        "question": "Quelle est l'écriture décimale de $$${math.round(:i+:b,4)}\\times10^{${:c}}$$ ?",
        "answer":"$$${math.round(:i+:b,7)}\\times10^{${:c}}=\\color{red}{${:d}}$$",
        "value":"${:d}"
    },{
        "name":"Enoncé court : donner l'écriture scientifique",
        "vars":{
            "a":"1_3",
            "b":"d0_1_${:a}_^0,1",
            "i":"1_9",
            "pm":"0_1",
            "c":"${:pm?-5:1}_${:pm?-1:10}",
            "d":"${math.round(Number(:i+:b+'e'+:c),8)}"
        },
        "question": "$$${:d}$$",
        "answer":"$$${:d}=\\color{red}{${math.round(:i+:b,4)}\\times10^{${:c}}}$$",
        "value":"${math.round(:i+:b,7)}\\times10^{${:c}}"
    },{
        "name":"Enoncé court : donner l'écriture décimale",
        "vars":{
            "a":"1_3",
            "b":"d0_1_${:a}_^0,1",
            "i":"1_9",
            "pm":"0_1",
            "c":"${:pm?-5:1}_${:pm?-1:10}",
            "d":"${math.round(Number(:i+:b+'e'+:c),8)}"
        },
        "question": "$$${math.round(:i+:b,7)}\\times 10^{${:c}}$$",
        "answer":"$$${math.round(:i+:b,7)}\\times 10^{${:c}}=\\color{red}{${:d}}$$",
        "value":"${:d}"
    },{
        "name":"Donner une écriture scientifique approchée avec quelques chiffres significatifs",
        "vars":{
            "p":"5_8",
            "dec":"${Math.pow(10,:p)}_${Math.pow(10,:p+1)}",
            "chiffres_sig":"3_5",
            "ecrit_sci":" ${Number.parseFloat(:dec).toExponential()} ",
            "mantisse_arr" : "${Number.parseFloat(:ecrit_sci.substring(1,:ecrit_sci.search('e'))).toFixed(:chiffres_sig-1)}",
            "exposant" : "${Number(:ecrit_sci.substring(:ecrit_sci.search('e')+1,:ecrit_sci.length))}"
        },
        "question": "Donner une écriture scientifique approchée de $$${:dec}$$ avec $$${:chiffres_sig}$$ chiffres significatifs?",
        "answer":"$$${:dec} \\approx \\color{red}{ ${ :mantisse_arr + ' \\times 10^{' + :exposant +'}' } }$$",
        "value":"${ :mantisse_arr + ' \\times 10^{' + :exposant +'}' }"
    }
    ]
}