<?xml version="1.0" encoding="UTF-8" standalone="no"?>
<svg
   width="300"
   height="180"
   version="1.1"
   viewBox="0 0 79.35 47.7"
   id="svg22"
   sodipodi:docname="triangleRectangleDimensions3.svg"
   inkscape:version="1.1.2 (b8e25be833, 2022-02-05)"
   xmlns:inkscape="http://www.inkscape.org/namespaces/inkscape"
   xmlns:sodipodi="http://sodipodi.sourceforge.net/DTD/sodipodi-0.dtd"
   xmlns="http://www.w3.org/2000/svg"
   xmlns:svg="http://www.w3.org/2000/svg">
  <defs
     id="defs26" />
  <sodipodi:namedview
     id="namedview24"
     pagecolor="#ffffff"
     bordercolor="#666666"
     borderopacity="1.0"
     inkscape:pageshadow="2"
     inkscape:pageopacity="0.0"
     inkscape:pagecheckerboard="0"
     showgrid="false"
     inkscape:zoom="9.2333333"
     inkscape:cx="150"
     inkscape:cy="89.945848"
     inkscape:window-width="3840"
     inkscape:window-height="2054"
     inkscape:window-x="-11"
     inkscape:window-y="-11"
     inkscape:window-maximized="1"
     inkscape:current-layer="svg22" />
  <g
     font-family="Arial"
     font-size="4.23px"
     letter-spacing="0px"
     stroke-width="0.153403"
     word-spacing="0px"
     id="g14"
     transform="matrix(1.7274713,0,0,1.7274713,-13.350399,2.1663896)">
    <text
       x="40.483746"
       y="22.160534"
       style="line-height:1.25;stroke-width:0.153403"
       xml:space="preserve"
       id="text4"><tspan
         x="40.483746"
         y="22.160534"
         font-size="4.23px"
         stroke-width="0.153403"
         id="tspan2">A</tspan></text>
    <text
       x="8.921773"
       y="5.0844531"
       style="line-height:1.25;stroke-width:0.153403"
       xml:space="preserve"
       id="text8"><tspan
         x="8.921773"
         y="5.0844531"
         font-size="4.23px"
         stroke-width="0.153403"
         id="tspan6">B</tspan></text>
    <text
       x="39.908146"
       y="5.1420107"
       style="line-height:1.25;stroke-width:0.153403"
       xml:space="preserve"
       id="text12"><tspan
         x="39.908146"
         y="5.1420107"
         font-size="4.23px"
         stroke-width="0.153403"
         id="tspan10">C</tspan></text>
  </g>
  <g
     transform="matrix(-1.7274713,0,0,-1.7274713,77.169097,46.389654)"
     fill="none"
     stroke="#000000"
     id="g20"
     style="stroke-width:0.578881">
    <path
       d="m 12.7,5.79 v 14.1 h 27.2 z"
       stroke-width="0.153403px"
       id="path16" />
    <rect
       x="12.7"
       y="18.700001"
       width="1.23"
       height="1.23"
       stroke-linecap="round"
       stroke-linejoin="round"
       stroke-width="0.153403"
       id="rect18" />
  </g>
  <text
     xml:space="preserve"
     style="font-size:7.44547px;line-height:1.25;font-family:Arial;-inkscape-font-specification:Arial;text-align:center;letter-spacing:0px;word-spacing:0px;text-anchor:middle;stroke-width:0.265001"
     x="33.518124"
     y="8.0972576"
     id="text2429-0"
     transform="scale(0.92457236,1.0815811)"><tspan
       sodipodi:role="line"
       id="tspan2427-9"
       style="text-align:center;text-anchor:middle;stroke-width:0.265001"
       x="33.518124"
       y="8.0972576">${:long}</tspan></text>
  <text
     xml:space="preserve"
     style="font-size:7.44547px;line-height:1.25;font-family:Arial;-inkscape-font-specification:Arial;text-align:start;letter-spacing:0px;word-spacing:0px;text-anchor:start;stroke-width:0.265001"
     x="61.081367"
     y="23.859383"
     id="text2429"
     transform="scale(0.92457236,1.0815811)"><tspan
       sodipodi:role="line"
       id="tspan2427"
       style="text-align:start;text-anchor:start;stroke-width:0.265001"
       x="61.081367"
       y="23.859383">${:lar}</tspan></text>
</svg>
