{
    "title":"Calcul de probabilités-événement contraire",
    "type":"text",
    "textSize":"small",
    "ID":"GS11",
    "description":"arbre de probabilités-événement contraire",
    "dest":["2D2","GS1"],
    "options":[
        {
        "name":"Arbre à 2 branches par niveau (2 niveaux)",
        "consts":{
            "lettres":"ABCDEFGHIJKLMNRSTUVWXYZ", 
            "figures":[
                "<svg width=\"8em\" height=\"8em\" viewBox=\"0,0 300,400\" xmlns=\"http://www.w3.org/2000/svg\"><g transform=\"rotate(-90 200,200)\"><rect x=\"0\" y=\"0\" width=\"400\" height=\"300\" style=\"fill:#ffffff\" /><text x=\"100\" y=\"88\" font-size=\"16\" fill=\"black\" text-anchor=\"start\" transform=\"rotate(90 99.3,83.8)\">${:A}&#773;</text><text x=\"300\" y=\"88\" font-size=\"16\" fill=\"black\" text-anchor=\"start\" transform=\"rotate(90 299.3,83.8)\">${:A}</text><text x=\"50\" y=\"168\" font-size=\"16\" fill=\"black\" text-anchor=\"start\" transform=\"rotate(90 49.3,163.8)\">${:C}&#773;</text><text x=\"150\" y=\"168\" font-size=\"16\" fill=\"black\" text-anchor=\"start\" transform=\"rotate(90 149.3,163.8)\">${:C}</text><text x=\"250\" y=\"168\" font-size=\"16\" fill=\"black\" text-anchor=\"start\" transform=\"rotate(90 249.3,163.8)\">${:B}&#773;</text><text x=\"350\" y=\"168\" font-size=\"16\" fill=\"black\" text-anchor=\"start\" transform=\"rotate(90 349.3,163.8)\">${:B}</text><line x1=\"187.5\" y1=\"18\" x2=\"151.9\" y2=\"46.5\" style=\"stroke:black; stroke-width:1\" /><text x=\"142.5\" y=\"54\" font-size=\"16\" fill=\"red\" text-anchor=\"middle\" transform=\"rotate(90 142.1,51.3)\">?</text><line x1=\"133.1\" y1=\"61.5\" x2=\"112.5\" y2=\"78\" style=\"stroke:black; stroke-width:1\" /><line x1=\"212.5\" y1=\"18\" x2=\"248.1\" y2=\"46.5\" style=\"stroke:black; stroke-width:1\" /><text x=\"257.5\" y=\"54\" font-size=\"16\" fill=\"black\" text-anchor=\"middle\" transform=\"rotate(90 257.1,51.3)\">${math.round(:lo[0]*0.1,1)}</text><line x1=\"266.9\" y1=\"61.5\" x2=\"287.5\" y2=\"78\" style=\"stroke:black; stroke-width:1\" /><line x1=\"93.8\" y1=\"98\" x2=\"78.9\" y2=\"120.5\" style=\"stroke:black; stroke-width:1\" /><text x=\"71.3\" y=\"134\" font-size=\"16\" fill=\"black\" text-anchor=\"middle\" transform=\"rotate(90 70.9,131.3)\">${math.round(:lo[2]*0.1,1)}</text><line x1=\"68\" y1=\"141\" x2=\"56.3\" y2=\"158\" style=\"stroke:black; stroke-width:1\" /><line x1=\"106.3\" y1=\"98\" x2=\"143.8\" y2=\"158\" style=\"stroke:black; stroke-width:1\" /><line x1=\"293.8\" y1=\"98\" x2=\"275.9\" y2=\"118.5\" style=\"stroke:black; stroke-width:1\" /><text x=\"271.3\" y=\"134\" font-size=\"16\" fill=\"black\" text-anchor=\"middle\" transform=\"rotate(90 270.9,131.3)\">${math.round(:lo[1]*0.1,1)}</text><line x1=\"266.6\" y1=\"140.5\" x2=\"256.3\" y2=\"158\" style=\"stroke:black; stroke-width:1\" /><line x1=\"306.3\" y1=\"98\" x2=\"343.8\" y2=\"158\" style=\"stroke:black; stroke-width:1\" /></g></svg>",
                "<svg width=\"8em\" height=\"8em\" viewBox=\"0,0 300,400\" xmlns=\"http://www.w3.org/2000/svg\"><g transform=\"rotate(-90 200,200)\"><rect x=\"0\" y=\"0\" width=\"400\" height=\"300\" style=\"fill:#ffffff\" /><text x=\"100\" y=\"88\" font-size=\"16\" fill=\"black\" text-anchor=\"start\" transform=\"rotate(90 99.3,83.8)\">${:A}&#773;</text><text x=\"300\" y=\"88\" font-size=\"16\" fill=\"black\" text-anchor=\"start\" transform=\"rotate(90 299.3,83.8)\">${:A}</text><text x=\"50\" y=\"168\" font-size=\"16\" fill=\"black\" text-anchor=\"start\" transform=\"rotate(90 49.3,163.8)\">${:C}&#773;</text><text x=\"150\" y=\"168\" font-size=\"16\" fill=\"black\" text-anchor=\"start\" transform=\"rotate(90 149.3,163.8)\">${:C}</text><text x=\"250\" y=\"168\" font-size=\"16\" fill=\"black\" text-anchor=\"start\" transform=\"rotate(90 249.3,163.8)\">${:B}&#773;</text><text x=\"350\" y=\"168\" font-size=\"16\" fill=\"black\" text-anchor=\"start\" transform=\"rotate(90 349.3,163.8)\">${:B}</text><line x1=\"187.5\" y1=\"18\" x2=\"112.5\" y2=\"78\" style=\"stroke:black; stroke-width:1\" /><line x1=\"212.5\" y1=\"18\" x2=\"247.1\" y2=\"46.5\" style=\"stroke:black; stroke-width:1\" /><text x=\"257.5\" y=\"54\" font-size=\"16\" fill=\"black\" text-anchor=\"middle\" transform=\"rotate(90 257.1,51.3)\">${math.round(:lo[0]*0.1,1)}</text><line x1=\"267.9\" y1=\"62.5\" x2=\"287.5\" y2=\"78\" style=\"stroke:black; stroke-width:1\" /><line x1=\"93.8\" y1=\"98\" x2=\"56.3\" y2=\"158\" style=\"stroke:black; stroke-width:1\" /><line x1=\"106.3\" y1=\"98\" x2=\"118.1\" y2=\"126.5\" style=\"stroke:black; stroke-width:1\" /><text x=\"128.8\" y=\"134\" font-size=\"16\" fill=\"black\" text-anchor=\"middle\" transform=\"rotate(90 128.4,131.3)\">${math.round(:lo[2]*0.1,1)}</text><line x1=\"136.4\" y1=\"143.5\" x2=\"143.8\" y2=\"158\" style=\"stroke:black; stroke-width:1\" /><line x1=\"293.8\" y1=\"98\" x2=\"275.9\" y2=\"126.5\" style=\"stroke:black; stroke-width:1\" /><text x=\"271.3\" y=\"134\" font-size=\"16\" fill=\"red\" text-anchor=\"middle\" transform=\"rotate(90 270.9,131.3)\">?</text><line x1=\"266.6\" y1=\"141.5\" x2=\"256.3\" y2=\"158\" style=\"stroke:black; stroke-width:1\" /><line x1=\"306.3\" y1=\"98\" x2=\"322.1\" y2=\"126.5\" style=\"stroke:black; stroke-width:1\" /><text x=\"328.8\" y=\"134\" font-size=\"16\" fill=\"black\" text-anchor=\"middle\" transform=\"rotate(90 328.4,131.3)\">${math.round(:lo[1]*0.1,1)}</text><line x1=\"333.4\" y1=\"141.5\" x2=\"343.8\" y2=\"158\" style=\"stroke:black; stroke-width:1\" /></g></svg>",
                "<svg width=\"8em\" height=\"8em\" viewBox=\"0,0 300,400\" xmlns=\"http://www.w3.org/2000/svg\"><g transform=\"rotate(-90 200,200)\"><rect x=\"0\" y=\"0\" width=\"400\" height=\"300\" style=\"fill:#ffffff\" /><text x=\"100\" y=\"88\" font-size=\"16\" fill=\"black\" text-anchor=\"start\" transform=\"rotate(90 99.3,83.8)\">${:A}&#773;</text><text x=\"300\" y=\"88\" font-size=\"16\" fill=\"black\" text-anchor=\"start\" transform=\"rotate(90 299.3,83.8)\">${:A}</text><text x=\"50\" y=\"168\" font-size=\"16\" fill=\"black\" text-anchor=\"start\" transform=\"rotate(90 49.3,163.8)\">${:C}&#773;</text><text x=\"150\" y=\"168\" font-size=\"16\" fill=\"black\" text-anchor=\"start\" transform=\"rotate(90 149.3,163.8)\">${:C}</text><text x=\"250\" y=\"168\" font-size=\"16\" fill=\"black\" text-anchor=\"start\" transform=\"rotate(90 249.3,163.8)\">${:B}&#773;</text><text x=\"350\" y=\"168\" font-size=\"16\" fill=\"black\" text-anchor=\"start\" transform=\"rotate(90 349.3,163.8)\">${:B}</text><line x1=\"187.5\" y1=\"18\" x2=\"112.5\" y2=\"78\" style=\"stroke:black; stroke-width:1\" /><line x1=\"212.5\" y1=\"18\" x2=\"247.1\" y2=\"46.5\" style=\"stroke:black; stroke-width:1\" /><text x=\"257.5\" y=\"54\" font-size=\"16\" fill=\"black\" text-anchor=\"middle\" transform=\"rotate(90 257.1,51.3)\">${math.round(:lo[0]*0.1,1)}</text><line x1=\"267.9\" y1=\"62.5\" x2=\"287.5\" y2=\"78\" style=\"stroke:black; stroke-width:1\" /><line x1=\"93.8\" y1=\"98\" x2=\"75.9\" y2=\"126.5\" style=\"stroke:black; stroke-width:1\" /><text x=\"71.3\" y=\"134\" font-size=\"16\" fill=\"red\" text-anchor=\"middle\" transform=\"rotate(90 70.9,131.3)\">?</text><line x1=\"66.6\" y1=\"141.5\" x2=\"56.3\" y2=\"158\" style=\"stroke:black; stroke-width:1\" /><line x1=\"106.3\" y1=\"98\" x2=\"118.1\" y2=\"126.5\" style=\"stroke:black; stroke-width:1\" /><text x=\"128.8\" y=\"134\" font-size=\"16\" fill=\"black\" text-anchor=\"middle\" transform=\"rotate(90 128.4,131.3)\">${math.round(:lo[2]*0.1,1)}</text><line x1=\"133.4\" y1=\"141.5\" x2=\"143.8\" y2=\"158\" style=\"stroke:black; stroke-width:1\" /><line x1=\"293.8\" y1=\"98\" x2=\"256.3\" y2=\"158\" style=\"stroke:black; stroke-width:1\" /><line x1=\"306.3\" y1=\"98\" x2=\"324.1\" y2=\"126.5\" style=\"stroke:black; stroke-width:1\" /><text x=\"328.8\" y=\"134\" font-size=\"16\" fill=\"black\" text-anchor=\"middle\" transform=\"rotate(90 328.4,131.3)\">${math.round(:lo[1]*0.1,1)}</text><line x1=\"333.4\" y1=\"141.5\" x2=\"343.8\" y2=\"158\" style=\"stroke:black; stroke-width:1\" /></g></svg>"
           ]        
        },
        "vars":{"l":"0_22_3_^&","A":"${:lettres[:l[0]]}", "B":"${:lettres[:l[1]]}", "C":"${:lettres[:l[2]]}", "nb":"0_2","lo":"1_9_3_^&"},
        "question":"Calculez $$\\color{red}{?}$$",
        "figure":{"type":"svg","content":"${:figures[:nb]}"},
        "shortq":"${:figures[:nb]}",
        "answer":"$$?=\\color{red}{${math.round(1-:lo[:nb]*0.1,1)}}=\\color{green}{1-${math.round(:lo[:nb]*0.1,1)}}$$",
        "value":"${math.round(1-:lo[:nb]*0.1,1)}"
        },
        {
        "name":"Arbre à 3 branches niveau 1 et 2 branches niveaux 2",
        "consts":{
            "lettres":"ABCDEFGHIJKLMNRSTUVWXYZ", 
            "figures": "<svg width=\"8em\" height=\"8em\" viewBox=\"0,0 300,400\" xmlns=\"http://www.w3.org/2000/svg\"><g transform=\"rotate(-90 200,200)\"><rect x=\"0\" y=\"0\" width=\"400\" height=\"300\" style=\"fill:#ffffff\" /><text x=\"66.7\" y=\"88\" font-size=\"16\" fill=\"black\" text-anchor=\"start\" transform=\"rotate(90 66,83.8)\">${:A}</text><text x=\"200\" y=\"88\" font-size=\"16\" fill=\"black\" text-anchor=\"start\" transform=\"rotate(90 199.3,83.8)\">${:B}</text><text x=\"333.3\" y=\"88\" font-size=\"16\" fill=\"black\" text-anchor=\"start\" transform=\"rotate(90 332.6,83.8)\">${:C}</text><text x=\"33.3\" y=\"168\" font-size=\"16\" fill=\"black\" text-anchor=\"start\" transform=\"rotate(90 32.6,163.8)\">${:F}&#773;</text><text x=\"100\" y=\"168\" font-size=\"16\" fill=\"black\" text-anchor=\"start\" transform=\"rotate(90 99.3,163.8)\">${:F}</text><text x=\"166.7\" y=\"168\" font-size=\"16\" fill=\"black\" text-anchor=\"start\" transform=\"rotate(90 166,163.8)\">${:E}&#773;</text><text x=\"233.3\" y=\"168\" font-size=\"16\" fill=\"black\" text-anchor=\"start\" transform=\"rotate(90 232.6,163.8)\">${:E}</text><text x=\"300\" y=\"168\" font-size=\"16\" fill=\"black\" text-anchor=\"start\" transform=\"rotate(90 299.3,163.8)\">${:D}&#773;</text><text x=\"366.7\" y=\"168\" font-size=\"16\" fill=\"black\" text-anchor=\"start\" transform=\"rotate(90 366,163.8)\">${:D}</text><line x1=\"183.3\" y1=\"18\" x2=\"135.8\" y2=\"46.5\" style=\"stroke:black; stroke-width:1\" /><text x=\"123.3\" y=\"54\" font-size=\"16\" fill=\"black\" text-anchor=\"middle\" transform=\"rotate(90 122.9,51.3)\">${math.round(:pC*0.1,1)}</text><line x1=\"110.8\" y1=\"61.5\" x2=\"83.3\" y2=\"78\" style=\"stroke:black; stroke-width:1\" /><line x1=\"200\" y1=\"18\" x2=\"200\" y2=\"46.5\" style=\"stroke:black; stroke-width:1\" /><text x=\"200\" y=\"54\" font-size=\"16\" fill=\"black\" text-anchor=\"middle\" transform=\"rotate(90 199.6,51.3)\">${math.round(:lo[1]*0.1,1)}</text><line x1=\"200\" y1=\"61.5\" x2=\"200\" y2=\"78\" style=\"stroke:black; stroke-width:1\" /><line x1=\"216.7\" y1=\"18\" x2=\"264.2\" y2=\"46.5\" style=\"stroke:black; stroke-width:1\" /><text x=\"276.7\" y=\"54\" font-size=\"16\" fill=\"red\" text-anchor=\"middle\" transform=\"rotate(90 276.3,51.3)\">?</text><line x1=\"289.2\" y1=\"61.5\" x2=\"316.7\" y2=\"78\" style=\"stroke:black; stroke-width:1\" /><line x1=\"62.5\" y1=\"98\" x2=\"50.6\" y2=\"126.5\" style=\"stroke:black; stroke-width:1\" /><text x=\"47.5\" y=\"134\" font-size=\"16\" fill=\"black\" text-anchor=\"middle\" transform=\"rotate(90 47.1,131.3)\">${math.round(:lo[4]*0.1,1)}</text><line x1=\"44.4\" y1=\"141.5\" x2=\"37.5\" y2=\"158\" style=\"stroke:black; stroke-width:1\" /><line x1=\"70.8\" y1=\"98\" x2=\"95.8\" y2=\"158\" style=\"stroke:black; stroke-width:1\" /><line x1=\"195.8\" y1=\"98\" x2=\"184\" y2=\"126.5\" style=\"stroke:black; stroke-width:1\" /><text x=\"180.8\" y=\"134\" font-size=\"16\" fill=\"black\" text-anchor=\"middle\" transform=\"rotate(90 180.4,131.3)\">${math.round(:lo[3]*0.1,1)}</text><line x1=\"177.7\" y1=\"141.5\" x2=\"170.8\" y2=\"158\" style=\"stroke:black; stroke-width:1\" /><line x1=\"204.2\" y1=\"98\" x2=\"229.2\" y2=\"158\" style=\"stroke:black; stroke-width:1\" /><line x1=\"329.2\" y1=\"98\" x2=\"317.3\" y2=\"126.5\" style=\"stroke:black; stroke-width:1\" /><text x=\"314.2\" y=\"134\" font-size=\"16\" fill=\"black\" text-anchor=\"middle\" transform=\"rotate(90 313.8,131.3)\">${math.round(:lo[2]*0.1,1)}</text><line x1=\"311\" y1=\"141.5\" x2=\"304.2\" y2=\"158\" style=\"stroke:black; stroke-width:1\" /><line x1=\"337.5\" y1=\"98\" x2=\"362.5\" y2=\"158\" style=\"stroke:black; stroke-width:1\" /></g></svg>"},
        "vars":{"l":"0_22_6_^&","A":"${:lettres[:l[0]]}", "B":"${:lettres[:l[1]]}", "C":"${:lettres[:l[2]]}","D":"${:lettres[:l[3]]}","E":"${:lettres[:l[4]]}","F":"${:lettres[:l[5]]}", "nb":"0_6", "lo":"1_9_5_^&","pC":"1_${10-:lo[1]}"},
        "question":"Calculez $$\\color{red}{?}$$",
        "figure":{"type":"svg","content":"${:figures}"},
        "shortq":"${:figures}",
        "answer":"$$P(\\overline{${:lettres[:l[2]]}})=\\color{red}{${math.round(1-:pC*0.1-:lo[1]*0.1,1)}}$$ $$=\\color{green}{1-${math.round(:pC*0.1,1)}-${math.round(:lo[1]*0.1,1)}}$$",
        "value":"${math.round(1-:lo[1]*0.1-:pC*0.1,1)}"
        }
     ]
}