{
    "title":"Calcul de probabilités totales sur arbre",
    "type":"text",
    "textSize":"small",
    "ID":"GS14",
    "description":"Calculer une probabilité totale",
    "dest":["2D2","GS1"],
    "options":[
        {
        "name":"Arbre à 2 niveaux",
        "consts":{
            "lettres":"ABCDEFGHIJKLMNRSTUVWXYZ", 
            "figures":"<svg width=\"300\" height=\"400\" viewBox=\"0,0 300,400\" xmlns=\"http://www.w3.org/2000/svg\"><g transform=\"rotate(-90 200,200)\"><rect x=\"0\" y=\"0\" width=\"400\" height=\"300\" style=\"fill:#ffffff\" /><text x=\"100\" y=\"132\" font-size=\"16\" fill=\"black\" text-anchor=\"start\" transform=\"rotate(90 99.3,127.8)\">${:A}&#773;</text><text x=\"300\" y=\"132\" font-size=\"16\" fill=\"black\" text-anchor=\"start\" transform=\"rotate(90 299.3,127.8)\">${:A}</text><text x=\"50\" y=\"252\" font-size=\"16\" fill=\"black\" text-anchor=\"start\" transform=\"rotate(90 49.3,247.8)\">${:B}&#773;</text><text x=\"150\" y=\"252\" font-size=\"16\" fill=\"black\" text-anchor=\"start\" transform=\"rotate(90 149.3,247.8)\">${:B}</text><text x=\"250\" y=\"252\" font-size=\"16\" fill=\"black\" text-anchor=\"start\" transform=\"rotate(90 249.3,247.8)\">${:B}&#773;</text><text x=\"350\" y=\"252\" font-size=\"16\" fill=\"black\" text-anchor=\"start\" transform=\"rotate(90 349.3,247.8)\">${:B}</text><line x1=\"187.5\" y1=\"27\" x2=\"151.9\" y2=\"69.8\" style=\"stroke:black; stroke-width:1\" /><text x=\"142.5\" y=\"81\" font-size=\"14\" fill=\"black\" text-anchor=\"middle\" transform=\"rotate(90 142.1,78.3)\">${math.round(:lo[0]*0.1,1)}</text><line x1=\"133.1\" y1=\"92.3\" x2=\"112.5\" y2=\"117\" style=\"stroke:black; stroke-width:1\" /><line x1=\"212.5\" y1=\"27\" x2=\"248.1\" y2=\"69.8\" style=\"stroke:black; stroke-width:1\" /><text x=\"257.5\" y=\"81\" font-size=\"14\" fill=\"black\" text-anchor=\"middle\" transform=\"rotate(90 257.1,78.3)\">${math.round(1-:lo[0]*0.1,1)}</text><line x1=\"266.9\" y1=\"92.3\" x2=\"287.5\" y2=\"117\" style=\"stroke:black; stroke-width:1\" /><line x1=\"93.8\" y1=\"147\" x2=\"75.9\" y2=\"189.8\" style=\"stroke:black; stroke-width:1\" /><text x=\"71.3\" y=\"201\" font-size=\"14\" fill=\"black\" text-anchor=\"middle\" transform=\"rotate(90 70.9,198.3)\">${math.round(:lo[2]*0.1,1)}</text><line x1=\"66.6\" y1=\"212.3\" x2=\"56.3\" y2=\"237\" style=\"stroke:black; stroke-width:1\" /><line x1=\"106.3\" y1=\"147\" x2=\"124.1\" y2=\"189.8\" style=\"stroke:black; stroke-width:1\" /><text x=\"128.8\" y=\"201\" font-size=\"14\" fill=\"black\" text-anchor=\"middle\" transform=\"rotate(90 128.4,198.3)\">${math.round(1-:lo[2]*0.1,1)}</text><line x1=\"133.4\" y1=\"212.3\" x2=\"143.8\" y2=\"237\" style=\"stroke:black; stroke-width:1\" /><line x1=\"293.8\" y1=\"147\" x2=\"275.9\" y2=\"189.8\" style=\"stroke:black; stroke-width:1\" /><text x=\"271.3\" y=\"201\" font-size=\"14\" fill=\"black\" text-anchor=\"middle\" transform=\"rotate(90 270.9,198.3)\">${math.round(:lo[1]*0.1,1)}</text><line x1=\"266.6\" y1=\"212.3\" x2=\"256.3\" y2=\"237\" style=\"stroke:black; stroke-width:1\" /><line x1=\"306.3\" y1=\"147\" x2=\"324.1\" y2=\"189.8\" style=\"stroke:black; stroke-width:1\" /><text x=\"328.8\" y=\"201\" font-size=\"14\" fill=\"black\" text-anchor=\"middle\" transform=\"rotate(90 328.4,198.3)\">${math.round(1-:lo[1]*0.1,1)}</text><line x1=\"333.4\" y1=\"212.3\" x2=\"343.8\" y2=\"237\" style=\"stroke:black; stroke-width:1\" /></g></svg>",  
            "nom":["${:B}","\\overline{${:B}}"],
            "rep":["${math.round((1-:lo[0]*0.1)*(1-:lo[1]*0.1)+(:lo[0]*0.1)*(1-:lo[2]*0.1),2)}","${math.round((1-:lo[0]*0.1)*(:lo[1]*0.1)+(:lo[0]*0.1)*(:lo[2]*0.1),2)}"],
            "repd":["${math.round(1-:lo[0]*0.1,1)}\\times ${math.round(1-:lo[1]*0.1,1)}+${math.round(:lo[0]*0.1,1)}\\times ${math.round(1-:lo[2]*0.1,1)}","${math.round(1-:lo[0]*0.1,1)}\\times ${math.round(:lo[1]*0.1,1)}+${math.round(:lo[0]*0.1,1)}\\times ${math.round(:lo[2]*0.1,1)}"]
        },
        "vars":{"l":"0_22_3_^&","A":"${:lettres[:l[0]]}", "B":"${:lettres[:l[1]]}", "nb":"0_1","lo":"1_9_3_^&"},
        "question":"Calculer $$P(${:nom[:nb]})$$.",
        "figure":{"type":"svg","content":"${:figures}"},
        "answer":"$$P(${:nom[:nb]}) =\\color{red}{${:rep[:nb]}}=\\color{green}{${:repd[:nb]}}$$",
        "value":"${:rep[:nb]}"
        }
    ]   
     
}