{
    "title":"Aires des figures usuelles",
    "type":"text",
    "ID":"6MC1",
    "speech":1,
    "description":"Pas encore compatible avec la saisie en ligne",
    "textSize":"small",
    "dest":["6MC", "5MA", "4MA", "3MA"],
    "consts":{
        "unites":["mm","cm","dm","m", "dam", "hm", "km"],
        "uv":{"mm":"millimètres","cm":"centimètres","dm":"décimètres","m":"mètres","dam":"décamètres","hm":"hectomètres","km":"kilomètres"}
    },
    "options":[{
        "name":"Aire du carré",
        "vars":{"a":"1_10", "aire":"${:a*:a}","u":"0_6", "fig":"0_2", "cote":"${:a} ${:unites[:u]}"},
        "consts":{"carres":[
                "<svg width='15em' height='9em' viewBox='0 0 79.35 47.7' xmlns='http://www.w3.org/2000/svg'><path fill='none' stroke='#000' stroke-width='.49' stroke-linecap='round' stroke-linejoin='round' d='M9.924 5.449h36.2V41.67h-36.2z'/><path fill='none' stroke='#000' stroke-width='.49' stroke-linecap='round' stroke-linejoin='round' d='M9.924 39.19h2.479v2.48H9.924zM43.645 5.45h2.479v2.48h-2.479zm0 33.741h2.479v2.48h-2.479zM9.925 5.45h2.478v2.48H9.924z'/><text style='line-height:1.25;-inkscape-font-specification:Arial' x='50.247' y='25.674' font-size='7.793' font-family='Arial' letter-spacing='0' word-spacing='0' stroke-width='.265' transform='scale(.9997 1.0003)'><tspan x='50.247' y='25.674'>${:cote}</tspan></text><path d='M28.318 3.557l-2.675 4.111m4.73-4.013l-2.676 4.112m-.162 31.49l-2.675 4.11m4.73-4.013l-2.676 4.113M11.808 20.51l-4.289 2.38m4.616-.422l-4.29 2.38m40.227-4.924l-4.289 2.377m4.616-.42L44.11 24.26' fill='none' stroke='#000' stroke-width='.49'/></svg>",
                "<svg width='15em' height='9em' viewBox='0 0 79.35 47.7' xmlns='http://www.w3.org/2000/svg'><path fill='none' stroke='#000' stroke-width='.49' stroke-linecap='round' stroke-linejoin='round' d='M7.754 11.565l33.179-8.427 8.421 33.208-33.18 8.426z'/><path fill='none' stroke='#000' stroke-width='.49' stroke-linecap='round' stroke-linejoin='round' d='M15.597 42.498l2.273-.576.577 2.273-2.273.577zM38.662 3.715l2.271-.577.577 2.274-2.271.576zm7.843 30.934l2.273-.578.576 2.275-2.272.575zM7.755 11.565l2.27-.578.579 2.275-2.271.577z'/><text style='line-height:1.25;-inkscape-font-specification:Arial' x='49.875' y='18.747' font-size='7.37' font-family='Arial' letter-spacing='0' word-spacing='0' stroke-width='.265' transform='scale(.99959 1.00041)'><tspan x='49.875' y='18.747'>${:cote}</tspan></text><path d='M24.173 5.548L22.677 9.94M26.08 5.16L24.583 9.55m7.17 28.907l-1.493 4.393m3.4-4.78l-1.494 4.39M12.98 24.935l-3.376 3.177m4.13-1.459l-3.375 3.18m35.723-13.88l-3.376 3.18m4.132-1.46l-3.378 3.18' fill='none' stroke='#000' stroke-width='.49'/></svg>",
                "<svg width='15em' height='9em' viewBox='0 0 79.35 47.7' xmlns='http://www.w3.org/2000/svg'><path fill='none' stroke='#000' stroke-width='.49' stroke-linecap='round' stroke-linejoin='round' d='M30.272 1.794l20.636 22.312-22.312 20.636L7.96 22.43z'/><path fill='none' stroke='#000' stroke-width='.49' stroke-linecap='round' stroke-linejoin='round' d='M9.487 21.017l1.413 1.527-1.527 1.413-1.414-1.528zm40.01 1.56l1.41 1.49-1.526 1.413-1.412-1.528zM28.71 41.803l1.413 1.527-1.528 1.414-1.413-1.529zm1.562-40.008l1.414 1.528-1.528 1.412-1.413-1.527z'/><text style='line-height:1.25;-inkscape-font-specification:Arial' x='45.447' y='11.204' font-size='7.793' font-family='Arial' letter-spacing='0' word-spacing='0' stroke-width='.265'><tspan x='45.447' y='11.204'>${:cote}</tspan></text><path d='M41.924 12.053l-4.058.694m5.169.628l-4.057.694M19.486 31.91l-4.057.695m5.17.627l-4.06.694m5.49-22.39l-3.91-1.288m2.89 2.604l-3.911-1.287m25.965 21.99l-3.91-1.288m2.89 2.604l-3.91-1.287' fill='none' stroke='#000' stroke-width='.49'/></svg>"
            ]},
        "figure":{
            "type":"svg",
            "content":"${:carres[:fig]}"
        },
        "question": "Quelle est l'<b>aire</b> d'un carré de côté $$${:a}\\text{ ${:unites[:u]}}$$ ?",
        "shortq": "Aire du carré ?",
        "audio": "Quelle est l'aire d'un carré de côté ${:a} ${:uv[:unites[:u]]} ?",
        "answer":"$$${:a}\\times${:a}=\\color{red}{${:aire}\\text{ ${:unites[:u]}}^2}$$",
        "value":["${:aire}~${:unites[:u]}^2", "${:aire}${:unites[:u]}^2", "${:aire}"]
    },{
        "name":"Aire du rectangle",
        "consts":{"rectangles":[
                "<svg width='15em' height='9em' viewBox='0 0 79.35 47.7' xmlns='http://www.w3.org/2000/svg'><path fill='none' stroke='#000' stroke-width='.49' stroke-linecap='round' stroke-linejoin='round' d='M3.958 7.394h57.518v25.503H3.958z'/><text style='line-height:1.25;-inkscape-font-specification:Arial' x='65.308' y='21.564' font-size='7.234' font-family='Arial' letter-spacing='0' word-spacing='0' stroke-width='.265' transform='scale(.99973 1.00027)'><tspan x='65.308' y='21.564'>${:lar}</tspan></text><text style='line-height:1.25;-inkscape-font-specification:Arial' x='24.672' y='41.548' font-size='7.234' font-family='Arial' letter-spacing='0' word-spacing='0' stroke-width='.265' transform='scale(.99973 1.00027)'><tspan x='24.672' y='41.548'>${:long}</tspan></text><path fill='none' stroke='#000' stroke-width='.49' stroke-linecap='round' stroke-linejoin='round' d='M3.958 7.394h2.3v2.302h-2.3zm0 23.201h2.3v2.302h-2.3zM59.175 7.394h2.301v2.302h-2.3zm0 23.201h2.301v2.302h-2.3z'/><path d='M32.702 5.682L30.22 9.498m4.388-3.724L32.127 9.59m.515 21.172l-2.483 3.816m4.39-3.725l-2.484 3.815M2.384 18.721l3.148 1.697m54.612-1.03l3.149 1.697' fill='none' stroke='#000' stroke-width='.49'/></svg>",
                "<svg width='15em' height='9em' viewBox='0 0 79.35 47.7' xmlns='http://www.w3.org/2000/svg'><path fill='none' stroke='#000' stroke-width='.49' stroke-linecap='round' stroke-linejoin='round' d='M8.993 2.814L63.751 18.16l-6.795 24.285L2.198 27.097z'/><text style='line-height:1.25;-inkscape-font-specification:Arial' x='62.006' y='36.18' font-size='7.152' font-family='Arial' letter-spacing='0' word-spacing='0' stroke-width='.265' transform='scale(.99964 1.00036)'><tspan x='62.006' y='36.18'>${:lar}</tspan></text><text style='line-height:1.25;-inkscape-font-specification:Arial' x='8.836' y='41.104' font-size='7.152' font-family='Arial' letter-spacing='0' word-spacing='0' stroke-width='.265' transform='scale(.99964 1.00036)'><tspan x='8.836' y='41.104'>${:long}</tspan></text><path fill='none' stroke='#000' stroke-width='.49' stroke-linecap='round' stroke-linejoin='round' d='M8.993 2.814l2.192.615-.613 2.191-2.192-.614zM2.812 24.905l2.19.615-.613 2.192-2.19-.615zm58.749-7.358l2.19.612-.614 2.194-2.19-.614zm-6.183 22.09l2.192.615-.614 2.192-2.192-.614z'/><path d='M36.815 8.853l-3.38 2.972m5.17-2.376l-3.379 2.97m-5.152 20.299l-3.38 2.97m5.172-2.376l-3.38 2.973M4.477 13.18l2.546 2.455m52.264 13.59l2.546 2.455' fill='none' stroke='#000' stroke-width='.49'/></svg>",
                "<svg width='15em' height='9em' viewBox='0 0 79.35 47.7' xmlns='http://www.w3.org/2000/svg'><path fill='none' stroke='#000' stroke-width='.49' stroke-linecap='round' stroke-linejoin='round' d='M3.207 20.592L54.852 3.705l7.475 22.914-51.645 16.887z'/><text style='line-height:1.25;-inkscape-font-specification:Arial' x='62.873' y='15.811' font-size='6.835' font-family='Arial' letter-spacing='0' word-spacing='0' stroke-width='.265' transform='scale(.99942 1.00058)'><tspan x='62.873' y='15.811'>${:lar}</tspan></text><text style='line-height:1.25;-inkscape-font-specification:Arial' x='39.754' y='41.904' font-size='6.835' font-family='Arial' letter-spacing='0' word-spacing='0' stroke-width='.265' transform='scale(.99942 1.00058)'><tspan x='39.754' y='41.904'>${:long}</tspan></text><path fill='none' stroke='#000' stroke-width='.49' stroke-linecap='round' stroke-linejoin='round' d='M3.207 20.592l2.067-.678.675 2.07-2.067.675zm6.8 20.846l2.067-.676.675 2.068-2.067.677zM52.787 4.38l2.065-.676.675 2.07-2.065.675zm6.8 20.846l2.065-.674.677 2.067-2.067.676z'/><path d='M28.514 10.616l-1.11 4.158m2.85-4.637l-1.112 4.158m6.668 18.872l-1.112 4.156m2.85-4.635l-1.11 4.158M5.114 31.232l3.324.6m48.734-16.958l3.323.6' fill='none' stroke='#000' stroke-width='.49'/></svg>"
            ]},
        "vars":{"a":"1_8", "b":"${:a+1}_9", "aire":"${:a*:b}","u":"0_6","fig":"0_2", "lar":"${:a} ${:unites[:u]}", "long":"${:b} ${:unites[:u]}"},
        "figure":{
            "type":"svg",
            "content":"${:rectangles[:fig]}"
        },
        "question": "Quelle est l'<b>aire</b> d'un rectangle de côtés $$${:a}\\text{ ${:unites[:u]}}$$ et  $$${:b}\\text{ ${:unites[:u]}}$$?",
        "shortq": "Aire du rectangle ?",
        "audio": "Quelle est l'aire d'un rectangle de côtés ${:a} ${:uv[:unites[:u]]} et ${:b} ${:uv[:unites[:u]]} ?",
        "answer":"$$${:a}\\times${:b}=\\color{red}{${:aire}\\text{ ${:unites[:u]}}^2}$$",
        "value":["${:aire}~${:unites[:u]}^2", "${:aire}${:unites[:u]}^2", "${:aire}"]
    },{
        "name":"Aire du triangle",
        "consts":{"triangles":[
                "<svg width='15em' height='9em' viewBox='0 0 79.375 47.625' xmlns='http://www.w3.org/2000/svg'><path d='M9.7 39.68h55.792L46.522 8.818z' fill='none' stroke='#000' stroke-width='.706'/><path d='M46.523 8.812v30.501' fill='none' stroke='#000' stroke-width='.706' stroke-linecap='round'/><path fill='#fff' stroke='#1a1a1a' stroke-width='.706' stroke-linecap='round' d='M46.523 37.674H48.5v1.977h-1.977z'/><text style='line-height:1.25;text-align:center' x='39.675' y='44.416' font-size='7.793' font-family='Arial' letter-spacing='0' word-spacing='0' stroke-width='.265' text-anchor='middle'><tspan style='text-align:center' x='34.071' y='46.416'>${:base}</tspan></text><text style='line-height:1.25;text-align:end' x='45.276' y='27.251' font-size='7.793' font-family='Arial' letter-spacing='0' word-spacing='0' text-anchor='end' stroke-width='.265'><tspan style='text-align:end' x='45.276' y='27.251'>${:h}</tspan></text></svg>",
                "<svg width='15em' height='9em' viewBox='0 0 79.375 47.625' xmlns='http://www.w3.org/2000/svg'><path d='M9.7 39.68h58.17L25.004 8.818z' fill='none' stroke='#000' stroke-width='.706'/><path d='M24.827 9.492v29.821' fill='none' stroke='#000' stroke-width='.706' stroke-linecap='round'/><path fill='#fff' stroke='#1a1a1a' stroke-width='.706' stroke-linecap='round' d='M24.827 37.674h1.977v1.977h-1.977z'/><text style='line-height:1.25;text-align:center' x='39.675' y='44.416' font-size='7.793' font-family='Arial' letter-spacing='0' word-spacing='0' stroke-width='.265' text-anchor='middle'><tspan style='text-align:center' x='34.071' y='46.416'>${:base}</tspan></text><text style='line-height:1.25;text-align:start' x='26.216' y='27.366' font-size='7.793' font-family='Arial' letter-spacing='0' word-spacing='0' stroke-width='.265'><tspan style='text-align:start' x='30.486' y='27.366'>${:h}</tspan></text></svg>",
                "<svg width='15em' height='9em' viewBox='0 0 79.375 47.625' xmlns='http://www.w3.org/2000/svg'><path d='M9.172 38.092h31.062l19.83-30.919z' fill='none' stroke='#000' stroke-width='.706'/><path d='M60.063 7.173v30.609' fill='none' stroke='#000' stroke-width='.706' stroke-linecap='round'/><path fill='#fff' stroke='#1a1a1a' stroke-width='.706' stroke-linecap='round' d='M60.063 36.142h1.977v1.977h-1.977z'/><text style='line-height:1.25;text-align:center' x='39.146' y='42.828' font-size='7.793' font-family='Arial' letter-spacing='0' word-spacing='0' text-anchor='middle' stroke-width='.265'><tspan style='text-align:center' x='39.146' y='44.828'>${:base}</tspan></text><text style='line-height:1.25;text-align:start' x='61.452' y='25.047' font-size='7.793' font-family='Arial' letter-spacing='0' word-spacing='0' stroke-width='.265'><tspan style='text-align:start' x='61.452' y='25.047'>${:h}</tspan></text><path d='M40.922 38.092h31.062' fill='none' stroke='#000' stroke-width='.706' stroke-dasharray='2.822 2.822'/></svg>",
                "<svg width='15em' height='9em' viewBox='0 0 79.375 47.625' xmlns='http://www.w3.org/2000/svg'><path d='M10.496 6.982l53.11 32.395 6.438-32.29z' fill='none' stroke='#000' stroke-width='.706'/><path d='M70.084 7.087l-15.939 26.13' fill='none' stroke='#000' stroke-width='.706' stroke-linecap='round'/><path fill='#fff' stroke='#1a1a1a' stroke-width='.706' stroke-linecap='round' d='M54.999 31.818l1.688 1.03-1.03 1.687-1.688-1.03z'/><text style='line-height:1.25;text-align:end' x='37.786' y='27.584' font-size='7.793' font-family='Arial' letter-spacing='0' word-spacing='0' text-anchor='end' stroke-width='.265'><tspan style='text-align:end' x='32.182' y='27.584'>${:base}</tspan></text><text style='line-height:1.25;text-align:end' x='60.164' y='20.491' font-size='7.793' font-family='Arial' letter-spacing='0' word-spacing='0' text-anchor='end' stroke-width='.265'><tspan style='text-align:end' x='60.164' y='20.491'>${:h}</tspan></text></svg>",
                "<svg width='15em' height='9em' viewBox='0 0 79.375 47.625' xmlns='http://www.w3.org/2000/svg'><path d='M72.566 2.785L12.132 17.55l18.333 27.35z' fill='none' stroke='#000' stroke-width='.706'/><path d='M30.465 44.899l-7.263-29.734' fill='none' stroke='#000' stroke-width='.706' stroke-linecap='round'/><path fill='#fff' stroke='#1a1a1a' stroke-width='.706' stroke-linecap='round' d='M23.59 16.757l-1.92.47-.469-1.921 1.92-.47z'/><text style='line-height:1.25;text-align:end' x='40.652' y='9.158' font-size='7.793' font-family='Arial' letter-spacing='0' word-spacing='0' text-anchor='end' stroke-width='.265'><tspan style='text-align:end' x='40.652' y='9.158'>${:base}</tspan></text><text style='line-height:1.25;text-align:start' x='28.241' y='28.17' font-size='7.793' font-family='Arial' letter-spacing='0' word-spacing='0' stroke-width='.265'><tspan style='text-align:start' x='32.511' y='28.17'>${:h}</tspan></text></svg>"
            ]},
        "vars":{"a":"1_9","h":"1_9","u":"0_6","xc":"1_10","aire":"${math.round(:a*:h/2,1)}", "fig":"0_4", "base":"${:a} ${:unites[:u]}"},
        "figure":{
            "type":"svg",
            "content":"${:triangles[:fig]}"
        },
        "question":"Quelle est l'<b>aire</b> d'un triangle de côté $$${:a}\\text{ ${:unites[:u]}}$$ et de hauteur $$${:h}\\text{ ${:unites[:u]}}$$ ?",
        "shortq": "Aire du triangle ?",
        "audio":"Quelle est l'aire d'un triangle de côté ${:a} ${:uv[:unites[:u]]} et de hauteur ${:h} ${:uv[:unites[:u]]} ?",
        "answer":"$$\\dfrac{b\\times h}{2}=\\dfrac{${:a}\\times${:h}}{2}=\\color{red}{${:aire}\\text{ ${:unites[:u]}}^2}$$",
        "value":["${:aire}~${:unites[:u]}^2", "${:aire}${:unites[:u]}^2", "${:aire}"]
    },
    {
        "name":"Aire du disque",
        "vars":{"r":"1_5","aire":"${math.round(Math.PI*:r*:r,1)}","r2":"${:r*:r}","u":"0_6","xM":"${:r+5}", "ray":"${:r} ${:unites[:u]}"},
        "figure":{
            "type":"svg",
            "content":"<svg width='15em' height='9em' viewBox='0 0 79.35 47.7' xmlns='http://www.w3.org/2000/svg'><text style='line-height:1.25' font-size='7.546' font-family='Arial' letter-spacing='0' word-spacing='0' stroke-width='.265' transform='scale(.99928 1.00072)' text-anchor='end'><tspan x='52.727' y='18.152' style='text-align:end'>${:ray}</tspan></text><ellipse cx='39.006' cy='23.78' fill='none' stroke='#000' stroke-width='.49' stroke-linecap='round' stroke-linejoin='round' rx='19.98' ry='20.009'/><path d='M37.544 22.477l2.923 2.606M40.291 22.16l-2.57 3.24M39.05 23.77l19.122-5.775' fill='none' stroke='#000' stroke-width='.49'/></svg>"
        },
        "question": "Quelle est l'<b>aire</b> d'un disque de rayon $$${:r}\\text{ ${:unites[:u]}}$$ ?",
        "shortq": "Aire du disque ?",
        "audio": "Quelle est l'aire d'un disque de rayon ${:r} ${:uv[:unites[:u]]} ?",
        "answer":"$$pi \\times R \\times R = \\pi\\times${:r}\\times ${:r} =\\color{red}{${math.signIfOne(:r2)}\\pi\\text{ ${:unites[:u]}}^2 \\approx ${:aire}\\text{ ${:unites[:u]}}^2}$$",
        "value":["${:aire}${:unites[:u]}^2","${math.signIfOne(:r2)}\\pi${:unites[:u]}^2", "${:aire}", "${math.signIfOne(:r2)}\\pi"]
    },
    {
        "name":"Aire du disque à partir du diamètre",
        "vars":{"r":"1_5", "d":"${:r*2}","aire":"${math.round(Math.PI*:r*:r,1)}","r2":"${:r*:r}","u":"0_6","xM":"${:r+5}","xN":"${5-:r}", "diam":"${:d} ${:unites[:u]}"},
        "figure":{
            "type":"svg",
            "content":"<svg width='15em' height='9em' viewBox='0 0 79.35 47.7' xmlns='http://www.w3.org/2000/svg'><text style='line-height:1.25;text-align:center' x='21.799' y='36.157' transform='rotate(-29.672)' font-size='8.041' font-family='Arial' letter-spacing='0' word-spacing='0' text-anchor='middle' stroke-width='.265'><tspan style='text-align:center' x='21.799' y='36.157'>${:diam}</tspan></text><circle cx='38.666' cy='23.542' r='21.307' fill='none' stroke='#000' stroke-width='.49' stroke-linecap='round' stroke-linejoin='round'/><path d='M20.688 34.773l36.63-21.385m-19.695 9.716l3.23 2.357' fill='none' stroke='#000' stroke-width='.49'/></svg>"
        },
        "question": "Quelle est l'<b>aire</b> d'un disque de diamètre $$${:d}\\text{ ${:unites[:u]}}$$ ?",
        "shortq": "Aire du disque ?",
        "audio": "Quelle est l'aire d'un disque de diamètre ${:d} ${:uv[:unites[:u]]} ?",
        "answer":"$$pi \\times R \\times R = \\pi\\times${:r}\\times ${:r} =\\color{red}{${math.signIfOne(:r2)}\\pi\\text{ ${:unites[:u]}}^2 \\approx ${:aire}\\text{ ${:unites[:u]}}^2}$$",
        "value":["${:aire}${:unites[:u]}^2","${math.signIfOne(:r2)}\\pi${:unites[:u]}^2", "${:aire}", "${math.signIfOne(:r2)}\\pi"]
    },
    {
        "name":"Aire du triangle rectangle",
        "consts":{"trianglesRectangles":[
                "<svg width='15em' height='9em' viewBox='0 0 79.35 47.7' xmlns='http://www.w3.org/2000/svg'><g font-family='Arial' font-size='4.23' letter-spacing='0' stroke-width='.151' word-spacing='0'><text x='8.96' y='5.084' style='line-height:1.25' transform='matrix(1.62356 0 0 1.89926 3.655 -1.612)'><tspan x='8.96' y='5.084'>A</tspan></text><text x='40.906' y='21.604' style='line-height:1.25' transform='matrix(1.62356 0 0 1.89926 3.655 -1.612)'><tspan x='40.906' y='21.604'>B</tspan></text><text x='8.864' y='22.89' style='line-height:1.25' transform='matrix(1.62356 0 0 1.89926 3.655 -1.612)'><tspan x='8.864' y='22.89'>C</tspan></text></g><g fill='none' stroke='#000' stroke-width='.407'><path d='M12.7 5.79v14.1h27.2z' transform='matrix(1.62356 0 0 1.89926 3.655 -1.612)'/><path stroke-linecap='round' stroke-linejoin='round' d='M12.7 18.7h1.23v1.23H12.7z' transform='matrix(1.62356 0 0 1.89926 3.655 -1.612)'/></g><text style='line-height:1.25;text-align:end' x='23.969' y='22.503'  font-size='6.5' font-family='Arial' letter-spacing='0' word-spacing='0' text-anchor='end' stroke-width='.265'><tspan style='text-align:end' x='22' y='22.503'>${:lar}</tspan></text><text style='line-height:1.25;text-align:center' x='49.776' y='41.584' font-size='6.5' font-family='Arial' letter-spacing='0' word-spacing='0' text-anchor='middle' stroke-width='.265'><tspan style='text-align:center' x='49.776' y='43'>${:long}</tspan></text></svg>",
                "<svg width='15em' height='9em' viewBox='0 0 79.35 47.7' xmlns='http://www.w3.org/2000/svg'><g font-family='Arial' font-size='4.23' letter-spacing='0' stroke-width='.49' word-spacing='0'><text x='41.366' y='6.025' style='line-height:1.25' transform='matrix(1.49084 0 0 1.49084 7.287 3.97)'><tspan x='41.366' y='6.025'>A</tspan></text><text x='9.728' y='23.504' style='line-height:1.25' transform='matrix(1.49084 0 0 1.49084 7.287 3.97)'><tspan x='9.728' y='23.504'>B</tspan></text><text x='9.114' y='5.487' style='line-height:1.25' transform='matrix(1.49084 0 0 1.49084 7.287 3.97)'><tspan x='9.114' y='5.487'>C</tspan></text></g><g fill='none' stroke='#000' stroke-width='.49'><path d='M26.728 34.296V12.711h41.64z' stroke-width='.49'/><path stroke-linecap='round' stroke-linejoin='round' d='M26.728 14.493h1.883V12.65h-1.883z' stroke-width='.49'/></g><text style='line-height:1.25;text-align:center' x='46.379' y='10.137' font-size='6.491' font-family='Arial' letter-spacing='0' word-spacing='0' text-anchor='middle' stroke-width='.265'><tspan style='text-align:center' x='46.379' y='10.137'>${:long}</tspan></text><text style='line-height:1.25;text-align:end' x='25.21' y='24.855' font-size='6.491' font-family='Arial' letter-spacing='0' word-spacing='0' text-anchor='end' stroke-width='.265'><tspan style='text-align:end' x='25.21' y='24.855'>${:lar}</tspan></text></svg>",
                "<svg width='15em' height='9em' viewBox='0 0 79.35 47.7' xmlns='http://www.w3.org/2000/svg'><g font-family='Arial' font-size='4.23' letter-spacing='0' stroke-width='.49' word-spacing='0'><text x='40.484' y='22.161' style='line-height:1.25' transform='translate(-13.35 2.166) scale(1.72747)'><tspan x='40.484' y='22.161'>A</tspan></text><text x='8.922' y='5.084' style='line-height:1.25' transform='translate(-13.35 2.166) scale(1.72747)'><tspan x='8.922' y='5.084'>B</tspan></text><text x='39.908' y='5.142' style='line-height:1.25' transform='translate(-13.35 2.166) scale(1.72747)'><tspan x='39.908' y='5.142'>C</tspan></text></g><g fill='none' stroke='#000' stroke-width='.49'><path d='M55.23 36.388V12.03H8.243z' stroke-width='.49'/><path stroke-linecap='round' stroke-linejoin='round' d='M55.23 14.086h-2.125V11.96h2.125z' stroke-width='.49'/></g><text style='line-height:1.25;text-align:center' x='33.518' y='8.097' font-size='6.5' font-family='Arial' letter-spacing='0' word-spacing='0' text-anchor='middle' stroke-width='.49'><tspan style='text-align:center' x='33.518' y='8.097'>${:long}</tspan></text><text style='line-height:1.25;text-align:start' x='61.081' y='23.859'  font-size='6.5' font-family='Arial' letter-spacing='0' word-spacing='0' stroke-width='.265'><tspan style='text-align:start' x='61.081' y='23.859'>${:lar}</tspan></text></svg>",
                "<svg width='15em' height='9em' viewBox='0 0 79.35 47.7' xmlns='http://www.w3.org/2000/svg'><g font-family='Arial' font-size='7.184' letter-spacing='0' stroke-width='.49' word-spacing='0'><text x='42.153' y='20.415' style='line-height:1.25' ><tspan x='72' y='40'>A</tspan></text><text style='line-height:1.25'><tspan x='12' y='40'>B</tspan></text><text style='line-height:1.25' x='25' y='13'>C</text></g><g fill='none' stroke='#000' stroke-width='.607'><path d='M17.837 37.127l11.21-21.568 41.607 21.624z'/><path stroke-linecap='round' stroke-linejoin='round' d='M28.1 17.38l1.882.977.978-1.882-1.882-.977z'/></g><text style='line-height:1.25;text-align:end' font-size='6' font-family='Arial' letter-spacing='0' word-spacing='0' text-anchor='end' stroke-width='.265' x='25.087' y='22.738'>${:lar}</text><text style='line-height:1.25;text-align:center' font-size='6' font-family='Arial' letter-spacing='0' word-spacing='0' text-anchor='middle' stroke-width='.265' x='60' y='24'>${:long}</text></svg>",
                "<svg width='15em' height='9em' viewBox='0 0 79.35 47.7' xmlns='http://www.w3.org/2000/svg'><g font-family='Arial' font-size='4.23' letter-spacing='0' stroke-width='.178' word-spacing='0'><text x='41.699' y='20.725' style='line-height:1.25' transform='translate(-6.5 6.696) scale(1.4876)'><tspan x='41.699' y='20.725'>A</tspan></text><text x='6.723' y='20.936' style='line-height:1.25' transform='translate(-6.5 6.696) scale(1.4876)'><tspan x='6.723' y='20.936'>B</tspan></text><text x='32.636' y='5.18' style='line-height:1.25' transform='translate(-6.5 6.696) scale(1.4876)'><tspan x='32.636' y='5.18'>C</tspan></text></g><g fill='none' stroke='#000' stroke-width='.49'><path d='M54.811 34.61L45.29 15.92 9.236 34.29z'/><path stroke-linecap='round' stroke-linejoin='round' d='M46.092 17.498l-1.63.83-.83-1.63 1.63-.83z'/></g><text style='line-height:1.25;text-align:start' font-size='6.5' font-family='Arial' letter-spacing='0' word-spacing='0' stroke-width='.265'><tspan style='text-align:start' x='50.106' y='23.828'>${:lar}</tspan></text><text style='line-height:1.25;text-align:center' x='12.874' y='28.795' transform='matrix(.83328 -.4006 .46862 .97479 0 0)' font-size='6.5' font-family='Arial' letter-spacing='0' word-spacing='0' text-anchor='middle' stroke-width='.265'><tspan style='text-align:center' x='12.874' y='28.795'>${:long}</tspan></text></svg>",
                "<svg width='15em' height='9em' viewBox='0 0 79.35 47.7' xmlns='http://www.w3.org/2000/svg'><g font-family='Arial' font-size='4.23' letter-spacing='0' stroke-width='.16' word-spacing='0'><text x='7.348' y='5.334' style='line-height:1.25' transform='matrix(1.65499 0 0 1.65499 -.734 -.19)'><tspan x='7.348' y='5.334'>A</tspan></text><text x='42.211' y='6.504' style='line-height:1.25' transform='matrix(1.65499 0 0 1.65499 -.734 -.19)'><tspan x='42.211' y='6.504'>B</tspan></text><text x='15.599' y='22.563' style='line-height:1.25' transform='matrix(1.65499 0 0 1.65499 -.734 -.19)'><tspan x='15.599' y='22.563'>C</tspan></text></g><g fill='none' stroke='#000' stroke-width='.607'><path d='M17.287 9.72l10.775 20.7 39.93-20.787z'/><path stroke-linecap='round' stroke-linejoin='round' d='M27.153 28.672l1.806-.94.94 1.806-1.806.94z' /></g><text style='line-height:1.25;text-align:end' font-size='6.5' font-family='Arial' letter-spacing='0' word-spacing='0' text-anchor='end' stroke-width='.265'><tspan style='text-align:end' x='22.524' y='22.771'>${:lar}</tspan></text><text style='line-height:1.25;text-align:center' transform='matrix(.81837 -.43024 .5033 .95734 0 0)' font-size='6.5' font-family='Arial' letter-spacing='0' word-spacing='0' text-anchor='middle' stroke-width='.265'><tspan x='36.057' y='44.057'>${:long}</tspan></text></svg>"
            ]},
        "vars":{"a":"1_8", "b":"${:a+1}_9", "aire":"${math.round(:a*:b/2, 1)}","u":"0_6","fig":"0_5", "lar":"${:a} ${:unites[:u]}", "long":"${:b} ${:unites[:u]}"},
        "figure":{
            "type":"svg",
            "content":"${:trianglesRectangles[:fig]}"
        },
        "question": "Quelle est l'<b>aire</b> d'un triangle rectangle de côtés $$${:a}\\text{ ${:unites[:u]}}$$ et  $$${:b}\\text{ ${:unites[:u]}}$$?",
        "shortq": "Aire du triangle ?",
        "audio": "Quelle est l'aire d'un triangle rectangle de côtés ${:a} ${:uv[:unites[:u]]} et ${:b} ${:uv[:unites[:u]]} ?",
        "answer":"$$${:a}\\times${:b}\\div 2=\\color{red}{${:aire}\\text{ ${:unites[:u]}}^2}$$",
        "value":["${:aire}~${:unites[:u]}^2", "${:aire}${:unites[:u]}^2", "${:aire}"]
    },
    {
        "name":"Aire exacte du disque",
        "vars":{"r":"1_5","r2":"${:r*:r}","u":"0_6","xM":"${:r+5}", "ray":"${:r} ${:unites[:u]}"},
        "figure":{
            "type":"svg",
            "content":"<svg width='15em' height='9em' viewBox='0 0 79.35 47.7' xmlns='http://www.w3.org/2000/svg'><text style='line-height:1.25' font-size='7.546' font-family='Arial' letter-spacing='0' word-spacing='0' stroke-width='.265' transform='scale(.99928 1.00072)' text-anchor='end'><tspan x='52.727' y='18.152' style='text-align:end'>${:ray}</tspan></text><ellipse cx='39.006' cy='23.78' fill='none' stroke='#000' stroke-width='.49' stroke-linecap='round' stroke-linejoin='round' rx='19.98' ry='20.009'/><path d='M37.544 22.477l2.923 2.606M40.291 22.16l-2.57 3.24M39.05 23.77l19.122-5.775' fill='none' stroke='#000' stroke-width='.49'/></svg>"
        },
        "question": "Quelle est l'<b>aire</b> exacte d'un disque de rayon $$${:r}\\text{ ${:unites[:u]}}$$ ?",
        "audio": "Quelle est l'aire exacte d'un disque de rayon ${:r} ${:uv[:unites[:u]]} ?",
        "shortq": "Aire exacte ?",
        "answer":"$$pi \\times R \\times R = \\pi\\times${:r}\\times ${:r} =\\color{red}{${math.signIfOne(:r2)}\\pi\\text{ ${:unites[:u]}}^2}$$",
        "value":["${math.signIfOne(:r2)}\\pi~${:unites[:u]}^2","${math.signIfOne(:r2)}\\pi${:unites[:u]}^2"] 
    },
    {
        "name":"Aire exacte du disque à partir du diamètre",
        "vars":{"r":"1_5", "d":"${:r*2}","r2":"${:r*:r}","u":"0_6","xM":"${:r+5}","xN":"${5-:r}", "diam":"${:d} ${:unites[:u]}"},
        "figure":{
            "type":"svg",
            "content":"<svg width='15em' height='9em' viewBox='0 0 79.35 47.7' xmlns='http://www.w3.org/2000/svg'><text style='line-height:1.25;text-align:center' x='21.799' y='36.157' transform='rotate(-29.672)' font-size='8.041' font-family='Arial' letter-spacing='0' word-spacing='0' text-anchor='middle' stroke-width='.265'><tspan style='text-align:center' x='21.799' y='36.157'>${:diam}</tspan></text><circle cx='38.666' cy='23.542' r='21.307' fill='none' stroke='#000' stroke-width='.49' stroke-linecap='round' stroke-linejoin='round'/><path d='M20.688 34.773l36.63-21.385m-19.695 9.716l3.23 2.357' fill='none' stroke='#000' stroke-width='.49'/></svg>"
        },
        "question": "Quelle est l'<b>aire</b> exacte d'un disque de diamètre $$${:d}\\text{ ${:unites[:u]}}$$ ?",
        "shortq": "Aire exacte ?",
        "audio": "Quelle est l'aire exacte d'un disque de diamètre ${:d} ${:uv[:unites[:u]]} ?",
        "answer":"$$pi \\times R \\times R = \\pi\\times${:r}\\times ${:r} =\\color{red}{${math.signIfOne(:r2)}\\pi\\text{ ${:unites[:u]}}^2}$$",
        "value":["${math.signIfOne(:r2)}\\pi~${:unites[:u]}^2","${math.signIfOne(:r2)}\\pi${:unites[:u]}^2"]
    }
    ]
}