{
    "title":"Simplifier une fraction",
    "ID":"6NB5",
    "speech":1,
    "description":"Écrire une fraction égale avec numérateur et dénominateurs les plus petits possibles",
    "keys":["_","_","_","/"],
    "dest":["6NB","5NA","4NA","3NA"],
    "options":[{
        "name":"Niveau 6e, reconnaissance des fractions 1/2, 1/10, 1/100",
        "vars":{"num":"2_30", "coeff":[2,10,100], "den":"${:num*:coeff}"},
        "question":"\\dfrac{${:num}}{${:den}}~=~ \\dfrac{...}{...}",
        "shortq":"\\dfrac{${:num}}{${:den}}~=~ \\dfrac{\\colorbox{#ECECEC}{\\quad}}{\\colorbox{#ECECEC}{\\quad}}",
        "audio":"Simplifier ${:num} ${math.NumberToFraction(:den)}",
        "answer":"\\dfrac{${:num}}{${:den}} = \\color{red}{\\dfrac{1}{${:coeff}}}",
        "value":["1/${:coeff}","\\dfrac{1}{${:coeff}}"]
    },{
        "name":"Niveaux supérieurs",
        "vars":{"nbs":"1_11_2_^&", "coeff":"2_11", "num1":"${:nbs[0]*:coeff}","den1":"${:nbs[1]*:coeff}","div":"${math.pgcd(:num1,:den1)}","num2":"${:num1/:div}", "den2":"${:den1/:div}"},
        "question":"\\dfrac{${:num1}}{${:den1}}~=~ \\dfrac{...}{...}",
        "shortq":"\\dfrac{${:num1}}{${:den1}}~=~ \\dfrac{\\colorbox{#ECECEC}{\\quad}}{\\colorbox{#ECECEC}{\\quad}}",
        "audio":"Simplifier ${:num1} ${math.NumberToFraction(:den1)}",
        "answer":"\\dfrac{${:num1}}{${:den1}} = \\color{red}{${(:den2!=1)?'\\dfrac{'+:num2+'}{'+:den2+'}'::num2}} \\color{red}{(\\text{simp. par }${:div})}",
        "value":["${(:den2!=1)?:num2+'/'+:den2::num2}","${(:den2!=1)?'\\dfrac{'+:num2+'}{'+:den2+'}'::num2}"]
    }
]
}