{
    "title":"Arrondir un nombre décimal",
    "description":"Donner le décimal le plus proche en fonction de la précision demandée.",
    "speech":1,
    "textSize":"medium",
    "type":"text",
    "ID":"6NC2",
    "dest":["6NC", "5NA", "4NA", "3NA"],
    "options":[
        {
            "name":"A l'unité",
            "vars":{
                "a":[10,100,1000,10000],
                "c":"2_5",
                "b":"d0_${:a}_${:c}_^0"},
            "question": "Arrondir $$${:b}$$ à l'unité près",
            "shortq": "$$${:b}\\approx\\colorbox{#ECECEC}{\\quad\\quad}$$ à l'unité près",
            "audio":"Arrondir ${String(:b).replace('.',',')} à l'unité près",
            "answer":"$$${:b}\\approx\\color{red}{${math.round(:b,0)}}$$ à l'unité près",
            "value":"${math.round(:b,0)}"
        },
        {
        "name":"Au dixième",
        "vars":{
            "a":[10,100,1000,10000],
            "c":"3_5",
            "b":"d0_${:a}_${:c}_^0"},
            "question": "Arrondir $$${:b}$$ au dixième près",
            "shortq": "$$${:b}\\approx\\colorbox{#ECECEC}{\\quad\\quad}$$ au 10<sup>e</sup> près",
            "audio":"Arrondir ${String(:b).replace('.',',')} au dixième près",
        "answer":"$$${:b}\\approx\\color{red}{${math.round(:b,1)}}$$ au dixième près",
        "value":"${math.round(:b,1)}"
    },
    {
        "name":"Au centième",
        "vars":{
            "a":[10,100,1000,10000],
            "c":"4_8",
            "b":"d0_${:a}_${:c}_^0"},
            "question": "Arrondir $$${:b}$$ au centième près",
            "shortq": "$$${:b}\\approx\\colorbox{#ECECEC}{\\quad\\quad\\quad}$$ au 100<sup>e</sup> près",
            "audio":"Arrondir ${String(:b).replace('.',',')} au centième près",
        "answer":"$$${:b}\\approx\\color{red}{${math.round(:b,2)}}$$ au centième près",
        "value":"${math.round(:b,2)}"
    },
    {
        "name":"Au millième",
        "vars":{
            "a":[10,100,1000,10000],
            "c":"5_10",
            "b":"d0_${:a}_${:c}_^0"},
            "question": "Arrondir $$${:b}$$ au millième près",
            "audio":"Arrondir ${String(:b).replace('.',',')} au millième près",
            "shortq": "$$${:b}\\approx\\colorbox{#ECECEC}{\\quad\\quad\\quad\\quad}$$ au 1000<sup>e</sup> près",
        "answer":"$$${:b}\\approx\\color{red}{${math.round(:b,3)}}$$ au millième près",
        "value":"${math.round(:b,3)}"
    }
    ]
}