{
    "title":"Calculs statistiques : moyenne, médiane, étendue de 2 à 5 valeurs",
    "description":"Pour le mode online, séparer les valeurs par le point-virugle.",
    "keys":["+","-","_",";","_","_","_","_"],
    "textSize":"small",
    "type":"text",
    "ID":"5DA2",
    "dest":["5DA","4DA","3DA", "2D1"],
    "options":[{
        "name":"Moyenne (5e)",
        "vars":{"nbvals":"2_5", "b":"1_20_${:nbvals-1}","m":"1_3","mn":"${:nbvals*:m}","c":"${:mn+:nbvals-:b.reduce((a,b)=>a+b)%:nbvals}","sum":"${:b.reduce((a,b)=>a+b)+:c}"},
        "question": "Quelle est la moyenne de ${:b.join(', ')} et ${:c} ?",
        "answer":"$$(${:b.join('+')+'+'+:c})\\div${:nbvals}=\\color{red}{${:sum/:nbvals}}$$",
        "value":"${:sum/:nbvals}"
    },{
        "name":"Médiane (4e)",
        "vars":{"nbvals":"2_5", "b":"1_30_${:nbvals}","bsorted":"${[...:b].sort((a,b)=>a-b)}"},
        "question": "Quelle est la médiane de ${:b.join('; ')} ?",
        "answer":"La médiane de ${:bsorted.split(',').join('; ')} est $$\\color{red}{${:nbvals%2?:bsorted.split(',')[(:nbvals-1)/2]:(Number(:bsorted.split(',')[:nbvals/2-1])+Number(:bsorted.split(',')[:nbvals/2]))/2}}$$",
        "value":"${:nbvals%2?:bsorted.split(',')[(:nbvals-1)/2]:(Number(:bsorted.split(',')[:nbvals/2-1])+Number(:bsorted.split(',')[:nbvals/2]))/2}"
    },{
        "name":"Moyenne et médiane (4e)",
        "vars":{"nbvals":"2_5", "b":"1_20_${:nbvals-1}","m":"1_3","mn":"${:nbvals*:m}","c":"${:mn+:nbvals-:b.reduce((a,b)=>a+b)%:nbvals}","sum":"${:b.reduce((a,b)=>a+b)+:c}","bsorted":"${[...:b].concat([:c]).sort((a,b)=>a-b)}"},
        "question": "Quelles sont la moyenne et la médiane de ${:b.join(', ')} et ${:c} ?",
        "answer":"Moyenne : $$(${:b.join('+')+'+'+:c})\\div${:nbvals}=\\color{red}{${:sum/:nbvals}}$$, médiane : $$\\color{red}{${:nbvals%2?:bsorted.split(',')[(:nbvals-1)/2]:(Number(:bsorted.split(',')[:nbvals/2-1])+Number(:bsorted.split(',')[:nbvals/2]))/2}}$$",
        "value":"${:sum/:nbvals};${:nbvals%2?:bsorted.split(',')[(:nbvals-1)/2]:(Number(:bsorted.split(',')[:nbvals/2-1])+Number(:bsorted.split(',')[:nbvals/2]))/2}}"
    },{
        "name":"Etendue (3e)",
        "vars":{"nbvals":"2_5", "b":"1_30_${:nbvals}","etendue":"${Math.max(...:b)-Math.min(...:b)}"},
        "question": "Quelle est l'étendue de ${:b.join('; ')} ?",
        "answer":"L'étendue de ${:b.join('; ')} est $$${Math.max(...:b)}-${Math.min(...:b)} = \\color{red}{${:etendue}}$$",
        "value":"${:etendue}"
    },{
        "name":"Moyenne, médiane et étendue (3e)",
        "vars":{"nbvals":"2_5", "b":"1_20_${:nbvals-1}","m":"1_3","mn":"${:nbvals*:m}","c":"${:mn+:nbvals-:b.reduce((a,b)=>a+b)%:nbvals}","sum":"${:b.reduce((a,b)=>a+b)+:c}","bsorted":"${[...:b].concat([:c]).sort((a,b)=>a-b)}","etendue":"${Math.max(...:b.concat([:c]))-Math.min(...:b.concat([:c]))}"},
        "question": "Quelles sont la moyenne, la médiane et l'étendue de ${:b.join(', ')} et ${:c} ?",
        "answer":"Moyenne : $$(${:b.join('+')+'+'+:c})\\div${:nbvals}=\\color{red}{${:sum/:nbvals}}$$, médiane : $$\\color{red}{${:nbvals%2?:bsorted.split(',')[(:nbvals-1)/2]:(Number(:bsorted.split(',')[:nbvals/2-1])+Number(:bsorted.split(',')[:nbvals/2]))/2}}$$ et étendue : $$${Math.max(...:b.concat([:c]))}-${Math.min(...:b.concat([:c]))} = \\color{red}{${:etendue}}$$",
        "value":"${:sum/:nbvals};${:nbvals%2?:bsorted.split(',')[(:nbvals-1)/2]:(Number(:bsorted.split(',')[:nbvals/2-1])+Number(:bsorted.split(',')[:nbvals/2]))/2}};${:etendue}"
    }
    ]
}