{
    "title":"Volumes de pyramides et cônes",
    "type":"text",
    "ID":"5MA3",
    "description":"Calculer le volume d'une pyramide à base carrée, rectangulaire ou triangulaire.",
    "textSize":"small",
    "dest":[ "4MA", "3MA"],
    "options":[{
        "name":"Volume de pyramide à base carrée",
        "consts":{"figures":[
            "<svg width=\"15em\" height=\"9em\" viewBox=\"0 0 79.375 47.625\" xmlns=\"http://www.w3.org/2000/svg\"><text style=\"line-height:1.25;;text-align:center\" x=\"33.194\" y=\"43.604\" font-size=\"4.233\" font-family=\"Arial\" letter-spacing=\"0\" word-spacing=\"0\" text-anchor=\"middle\" stroke-width=\".265\"><tspan style=\"text-align:center\" x=\"33.194\" y=\"43.604\">${:a} cm</tspan></text><path d=\"M18.683 38.876h24.902l9.57-9.17\" fill=\"none\" stroke=\"#000\" stroke-width=\".529\" stroke-linecap=\"round\" stroke-linejoin=\"round\"/><path d=\"M53.155 29.706h-24.9l-9.572 9.17\" fill=\"none\" stroke=\"#000\" stroke-width=\".529\" stroke-linecap=\"round\" stroke-dasharray=\"2.117 2.117\"/><path d=\"M35.876 34.262V4.384\" fill=\"none\" stroke=\"#000\" stroke-width=\".529\" stroke-linecap=\"round\" stroke-linejoin=\"round\" stroke-dasharray=\"1.587 1.587\"/><path d=\"M33.497 34.895l4.845-1.208M36.997 34.895l-2.155-1.208\" fill=\"none\" stroke=\"#000\" stroke-width=\".265\" stroke-linecap=\"round\" stroke-dasharray=\".794 .794\"/><path d=\"M18.683 38.876L35.876 4.384\" fill=\"none\" stroke=\"#000\" stroke-width=\".529\" stroke-linecap=\"round\"/><path d=\"M28.254 29.706l7.622-25.322\" fill=\"none\" stroke=\"#000\" stroke-width=\".529\" stroke-linecap=\"round\" stroke-dasharray=\"1.587 1.587\"/><path d=\"M43.585 38.876L35.876 4.384M53.155 29.706L35.876 4.384\" fill=\"none\" stroke=\"#000\" stroke-width=\".529\" stroke-linecap=\"round\"/><text style=\"line-height:1.25;\" x=\"11.405\" y=\"15.904\" font-size=\"4.233\" font-family=\"Arial\" letter-spacing=\"0\" word-spacing=\"0\" stroke-width=\".265\"><tspan x=\"11.405\" y=\"15.904\">${:h} cm</tspan></text><path d=\"M16.078 16.85c16.108-.43 18.595 1.346 18.595 1.346\" fill=\"none\" stroke=\"#000\" stroke-width=\".265\"/></svg>",
            "<svg width=\"15em\" height=\"9em\" viewBox=\"0 0 79.375 47.625\" xmlns=\"http://www.w3.org/2000/svg\"><text style=\"line-height:1.25;;text-align:center\" x=\"33.194\" y=\"43.604\" font-size=\"4.233\" font-family=\"Arial\" letter-spacing=\"0\" word-spacing=\"0\" text-anchor=\"middle\" stroke-width=\".265\"><tspan style=\"text-align:center\" x=\"33.194\" y=\"43.604\">${:a} cm</tspan></text><path d=\"M18.683 38.876h24.902l9.57-9.17\" fill=\"none\" stroke=\"#000\" stroke-width=\".529\" stroke-linecap=\"round\" stroke-linejoin=\"round\"/><path d=\"M53.155 29.706h-24.9l-9.572 9.17\" fill=\"none\" stroke=\"#000\" stroke-width=\".529\" stroke-linecap=\"round\" stroke-dasharray=\"2.117 2.117\"/><path d=\"M28.254 29.706V6.648\" fill=\"none\" stroke=\"#000\" stroke-width=\".529\" stroke-linecap=\"round\" stroke-linejoin=\"round\" stroke-dasharray=\"1.587 1.587\"/><path d=\"M18.683 38.876l9.571-32.228M43.585 38.876L28.255 6.648M53.155 29.706l-24.9-23.058\" fill=\"none\" stroke=\"#000\" stroke-width=\".529\" stroke-linecap=\"round\"/><text style=\"line-height:1.25;\" x=\"5.731\" y=\"16.591\" font-size=\"4.233\" font-family=\"Arial\" letter-spacing=\"0\" word-spacing=\"0\" stroke-width=\".265\"><tspan x=\"5.731\" y=\"16.591\">${:h} cm</tspan></text><path d=\"M8.14 18.225c16.109-.43 18.596 1.347 18.596 1.347M30.231 29.773l-.028-1.863H28.31\" fill=\"none\" stroke=\"#000\" stroke-width=\".265\"/><path d=\"M26.993 30.862l-.02-1.795 1.338-1.157\" fill=\"none\" stroke=\"#000\" stroke-width=\".265\"/></svg>",
            "<svg width=\"15em\" height=\"9em\" viewBox=\"0 0 79.375 47.625\" xmlns=\"http://www.w3.org/2000/svg\"><text style=\"line-height:1.25;;text-align:center\" x=\"33.194\" y=\"43.604\" font-size=\"4.233\" font-family=\"Arial\" letter-spacing=\"0\" word-spacing=\"0\" text-anchor=\"middle\" stroke-width=\".265\"><tspan style=\"text-align:center\" x=\"33.194\" y=\"43.604\">${:a} cm</tspan></text><path d=\"M18.683 38.876h24.902l9.57-9.17\" fill=\"none\" stroke=\"#000\" stroke-width=\".529\" stroke-linecap=\"round\" stroke-linejoin=\"round\"/><path d=\"M53.155 29.706h-24.9l-9.572 9.17\" fill=\"none\" stroke=\"#000\" stroke-width=\".529\" stroke-linecap=\"round\" stroke-dasharray=\"2.117 2.117\"/><path d=\"M43.585 38.81V3.848\" fill=\"none\" stroke=\"#000\" stroke-width=\".529\" stroke-linecap=\"round\" stroke-linejoin=\"round\"/><path d=\"M18.683 38.876L43.585 3.848\" fill=\"none\" stroke=\"#000\" stroke-width=\".529\" stroke-linecap=\"round\"/><path d=\"M28.254 29.706l15.33-25.858\" fill=\"none\" stroke=\"#000\" stroke-width=\".529\" stroke-linecap=\"round\" stroke-dasharray=\"2.117 2.117\"/><path d=\"M53.155 29.706l-9.57-25.858\" fill=\"none\" stroke=\"#000\" stroke-width=\".529\" stroke-linecap=\"round\"/><text style=\"line-height:1.25;\" x=\"54.015\" y=\"15.646\" font-size=\"4.233\" font-family=\"Arial\" letter-spacing=\"0\" word-spacing=\"0\" stroke-width=\".265\"><tspan x=\"54.015\" y=\"15.646\">${:h} cm</tspan></text><path d=\"M65.279 16.591c-20.427-.057-20.72 2.55-20.72 2.55M41.722 38.8l-.029-1.863h1.863M44.931 37.596l-.02-1.795-1.355 1.136\" fill=\"none\" stroke=\"#000\" stroke-width=\".265\"/></svg>"
        ]},
        "vars":{
            "triple":["c","h"],
            "a0":"1_5",
            "h0":"1_5",
            "a":"${:triple=='c'?:a0*3::a0}",
            "h":"${:triple=='h'?:h0*3::h0}",
            "v":"${:a*:a*:h/3}",
            "f":"0_2"},
        "figure":{"type":"svg", "content":"${:figures[:f]}"},
        "shortq":"Volume ?",
        "question": "Quel est le volume de la pyramide à base carrée ?",
        "answer":"Volume de la pyramide à base carrée <br>$$V=\\dfrac{a\\times a \\times h}3=\\color{red}{${:v}~cm^3}$$",
        "value":["${:v}~cm^3", "${:v}", "${:v}cm^3"]
    },{
        "name":"Volume de pyramide à base rectangulaire",
        "consts":{"figures":[
            "<svg width=\"15em\" height=\"9em\" viewBox=\"0 0 79.375 47.625\" xmlns=\"http://www.w3.org/2000/svg\"><path d=\"M64.016 28.703h-34.76V3.802\" fill=\"none\" stroke=\"#000\" stroke-width=\".529\" stroke-linecap=\"round\" stroke-linejoin=\"round\" stroke-dasharray=\"2.117 2.117\"/><path d=\"M15.896 37.873l13.36-9.17v0\" fill=\"none\" stroke=\"#000\" stroke-width=\".529\" stroke-linecap=\"round\" stroke-dasharray=\"2.117 2.117\"/><text style=\"line-height:1.25;text-align:center\" x=\"33.194\" y=\"43.604\" font-size=\"4.233\" font-family=\"Arial\" letter-spacing=\"0\" word-spacing=\"0\" text-anchor=\"middle\" stroke-width=\".265\"><tspan style=\"text-align:center\" x=\"33.194\" y=\"43.604\">${:a} cm</tspan></text><text style=\"line-height:1.25;text-align:center\" x=\"13.794\" y=\"16.324\" font-size=\"4.233\" font-family=\"Arial\" letter-spacing=\"0\" word-spacing=\"0\" text-anchor=\"middle\" stroke-width=\".265\"><tspan style=\"text-align:center\" x=\"13.794\" y=\"16.324\">${:h} cm</tspan></text><text style=\"line-height:1.25;text-align:center\" x=\"67.007\" y=\"36.039\" font-size=\"4.233\" font-family=\"Arial\" letter-spacing=\"0\" word-spacing=\"0\" text-anchor=\"middle\" stroke-width=\".265\"><tspan style=\"text-align:center\" x=\"67.007\" y=\"36.039\">${:b} cm</tspan></text><path d=\"M15.896 37.873h34.76l13.36-9.17M29.256 3.802l-13.36 34.07\" fill=\"none\" stroke=\"#000\" stroke-width=\".529\"/><path d=\"M50.656 37.873l-21.4-34.071 34.76 24.901\" fill=\"none\" stroke=\"#000\" stroke-width=\".529\"/><path d=\"M10.545 17.25c16.19-.2 17.852 2.006 17.852 2.006\" fill=\"none\" stroke=\"#000\" stroke-width=\".265\"/></svg>",
            "<svg width=\"15em\" height=\"9em\" viewBox=\"0 0 79.375 47.625\" xmlns=\"http://www.w3.org/2000/svg\"><path d=\"M65.993 28.76h-34.76\" fill=\"none\" stroke=\"#000\" stroke-width=\".529\" stroke-linecap=\"round\" stroke-linejoin=\"round\" stroke-dasharray=\"2.117 2.117\"/><path d=\"M17.873 37.93l13.36-9.17v0\" fill=\"none\" stroke=\"#000\" stroke-width=\".529\" stroke-linecap=\"round\" stroke-dasharray=\"2.117 2.117\"/><text style=\"line-height:1.25;text-align:center\" x=\"35.171\" y=\"43.661\" font-size=\"4.233\" font-family=\"Arial\" letter-spacing=\"0\" word-spacing=\"0\" text-anchor=\"middle\" stroke-width=\".265\"><tspan style=\"text-align:center\" x=\"35.171\" y=\"43.661\">${:a} cm</tspan></text><text style=\"line-height:1.25;text-align:center\" x=\"8.293\" y=\"21.654\" font-size=\"4.233\" font-family=\"Arial\" letter-spacing=\"0\" word-spacing=\"0\" text-anchor=\"middle\" stroke-width=\".265\"><tspan style=\"text-align:center\" x=\"8.293\" y=\"21.654\">${:h} cm</tspan></text><text style=\"line-height:1.25;text-align:center\" x=\"68.813\" y=\"36.211\" font-size=\"4.233\" font-family=\"Arial\" letter-spacing=\"0\" word-spacing=\"0\" text-anchor=\"middle\" stroke-width=\".265\"><tspan style=\"text-align:center\" x=\"68.813\" y=\"36.211\">${:b} cm</tspan></text><path d=\"M17.873 37.93h34.76l13.36-9.17\" fill=\"none\" stroke=\"#000\" stroke-width=\".529\"/><path d=\"M17.873 3.84l13.36 24.92\" fill=\"none\" stroke=\"#000\" stroke-width=\".529\" stroke-linecap=\"round\" stroke-dasharray=\"1.587 1.587\"/><path d=\"M52.633 37.93L17.873 3.84l48.12 24.92\" fill=\"none\" stroke=\"#000\" stroke-width=\".529\" stroke-linecap=\"round\" stroke-linejoin=\"round\"/><path d=\"M17.873 37.833V3.841\" fill=\"none\" stroke=\"#000\" stroke-width=\".529\" stroke-linecap=\"round\"/><path d=\"M20.145 37.968v-2.35h-2.092l1.519-1.088v2.12\" fill=\"none\" stroke=\"#000\" stroke-width=\".265\"/></svg>",
            "<svg width=\"15em\" height=\"9em\" viewBox=\"0 0 79.375 47.625\" xmlns=\"http://www.w3.org/2000/svg\"><text style=\"line-height:1.25;text-align:center\" x=\"29.01\" y=\"40.538\" font-size=\"4.233\" font-family=\"Arial\" letter-spacing=\"0\" word-spacing=\"0\" text-anchor=\"middle\" stroke-width=\".265\"><tspan style=\"text-align:center\" x=\"29.01\" y=\"40.538\">${:a} cm</tspan></text><text style=\"line-height:1.25;text-align:center\" x=\"18.494\" y=\"15.178\" font-size=\"4.233\" font-family=\"Arial\" letter-spacing=\"0\" word-spacing=\"0\" text-anchor=\"middle\" stroke-width=\".265\"><tspan style=\"text-align:center\" x=\"18.494\" y=\"15.178\">${:h} cm</tspan></text><text style=\"line-height:1.25;text-align:center\" x=\"61.591\" y=\"30.823\" font-size=\"4.233\" font-family=\"Arial\" letter-spacing=\"0\" word-spacing=\"0\" text-anchor=\"middle\" stroke-width=\".265\"><tspan style=\"text-align:center\" x=\"61.591\" y=\"30.823\">${:b} cm</tspan></text><path d=\"M43.976 35.752l19.257-14.558v0\" fill=\"none\" stroke=\"#000\" stroke-width=\".529\" stroke-linecap=\"round\"/><path d=\"M15.878 35.752l19.257-14.558h28.098M39.576 5.238v23.178\" fill=\"none\" stroke=\"#000\" stroke-width=\".529\" stroke-linecap=\"round\" stroke-dasharray=\"1.587 1.587\"/><path d=\"M15.878 35.752h28.098\" fill=\"none\" stroke=\"#000\" stroke-width=\".529\"/><path d=\"M39.03 27.65l1.052 1.648M41.504 27.917l-3.896 1.113\" fill=\"none\" stroke=\"#000\" stroke-width=\".265\"/><path d=\"M43.976 35.752l-4.4-30.514-23.698 30.514\" fill=\"none\" stroke=\"#000\" stroke-width=\".529\" stroke-linecap=\"round\" stroke-linejoin=\"round\"/><path d=\"M63.233 21.194L39.576 5.238\" fill=\"none\" stroke=\"#000\" stroke-width=\".529\"/><path d=\"M39.576 5.238l-4.441 15.956\" fill=\"none\" stroke=\"#000\" stroke-width=\".529\" stroke-linecap=\"round\" stroke-dasharray=\"1.587 1.587\"/><path d=\"M16.935 15.932c15.646-.515 21.606 1.261 21.606 1.261\" fill=\"none\" stroke=\"#000\" stroke-width=\".265\"/></svg>"
        ]},
        "vars":{
            "triple":["a","b","h"],
            "a0":"1_5",
            "b0":"1_5",
            "h0":"1_5",
            "a":"${:triple=='a'?:a0*3::a0}",
            "b":"${:triple=='b'?:b0*3::b0}",
            "h":"${:triple=='h'?:h0*3::h0}",
            "v":"${:a*:b*:h/3}",
            "f":"0_2"},
        "figure":{"type":"svg", "content":"${:figures[:f]}"},
        "shortq":"Volume ?",
        "question": "Quel est le volume de la pyramide à base rectangulaire ?",
        "answer":"Volume de la pyramide à base rectangulaire <br>$$V=\\dfrac{a\\times b \\times H}3=\\color{red}{${:v}~cm^3}$$",
        "value":["${:v}~cm^3", "${:v}", "${:v}cm^3"]
    },{
        "name":"Volume de pyramide à base triangulaire",
        "consts":{"figures":[
            "<svg width=\"15em\" height=\"9em\" viewBox=\"0 0 79.375 47.625\" xmlns=\"http://www.w3.org/2000/svg\"><g stroke-width=\".265\"><text style=\"line-height:1.25;\" x=\"47.59\" y=\"9.427\" transform=\"rotate(24.758)\" font-size=\"4.233\" font-family=\"Arial\" letter-spacing=\"0\" word-spacing=\"0\" fill=\"#4d4d4d\"><tspan x=\"47.59\" y=\"9.427\">${:a} cm</tspan></text><path d=\"M37.104 28.429l16.662 7.776-32.99 6.04z\" fill=\"#e3dedb\" stroke=\"#000\" stroke-linejoin=\"round\" stroke-dasharray=\"1.058 1.058\"/><path d=\"M20.775 42.245l32.99-6.04M37.104 4.087L20.775 42.245M37.104 4.087l16.662 32.118\" fill=\"none\" stroke=\"#000\"/><path d=\"M37.104 4.087V28.43\" fill=\"none\" stroke=\"#000\" stroke-dasharray=\"1.058 .529\"/><text style=\"line-height:1.25;\" x=\"-3.749\" y=\"44.709\" transform=\"rotate(-40.925)\" font-size=\"4.233\" font-family=\"Arial\" letter-spacing=\"0\" word-spacing=\"0\"><tspan x=\"-3.749\" y=\"44.709\">${:b} cm</tspan></text><text style=\"line-height:1.25;\" x=\"50.578\" y=\"17.465\" font-size=\"4.233\" font-family=\"Arial\" letter-spacing=\"0\" word-spacing=\"0\" fill=\"#4d4d4d\"><tspan x=\"50.578\" y=\"17.465\">${:h} cm</tspan></text><path d=\"M35.654 29.68l1.559.829 1.46-1.327M60.505 18.656c-19.555-.214-22.294 1.241-22.294 1.241M38.673 29.182l-.162-1.754-1.327-.556-1.497 1.07-.033 1.737\" fill=\"none\" stroke=\"#000\"/></g></svg>",
            "<svg width=\"15em\" height=\"9em\" viewBox=\"0 0 79.375 47.625\" xmlns=\"http://www.w3.org/2000/svg\"><text style=\"line-height:1.25;\" x=\"22.804\" y=\"53.47\" transform=\"rotate(-18.464)\" font-size=\"4.233\" font-family=\"Arial\" letter-spacing=\"0\" word-spacing=\"0\" fill=\"#4d4d4d\" stroke-width=\".265\"><tspan x=\"22.804\" y=\"53.47\">${:a} cm</tspan></text><path d=\"M21.68 28.766l32.424 5.712-24.92 6.79z\" fill=\"#e3dedb\" stroke=\"#000\" stroke-width=\".265\" stroke-linejoin=\"round\" stroke-dasharray=\"1.058 1.058\"/><path d=\"M29.183 41.269l24.921-6.79M29.183 8.577l24.921 25.901M29.183 8.577L21.68 28.766M29.183 8.577v32.692\" fill=\"none\" stroke=\"#000\" stroke-width=\".529\" stroke-linecap=\"round\"/><text style=\"line-height:1.25;\" x=\"35.954\" y=\"4.527\" transform=\"rotate(55.572)\" font-size=\"4.233\" font-family=\"Arial\" letter-spacing=\"0\" word-spacing=\"0\" stroke-width=\".265\"><tspan x=\"35.954\" y=\"4.527\">${:b} cm</tspan></text><text style=\"line-height:1.25;\" x=\"45.327\" y=\"17.953\" font-size=\"4.233\" font-family=\"Arial\" letter-spacing=\"0\" word-spacing=\"0\" fill=\"#4d4d4d\" stroke-width=\".265\"><tspan x=\"45.327\" y=\"17.953\">${:h} cm</tspan></text><path d=\"M29.183 41.269L21.68 28.766\" fill=\"none\" stroke=\"#000\" stroke-width=\".529\" stroke-linecap=\"round\"/><path d=\"M27.866 38.655l3.682-1.008 1.642 2.557\" fill=\"none\" stroke=\"#000\" stroke-width=\".397\"/><path d=\"M30.856 40.805v-2.022l-1.516.346-.944-1.41v2.022M50.913 18.78c-10.268-.107-20.589 3.564-20.589 3.564\" fill=\"none\" stroke=\"#000\" stroke-width=\".265\"/></svg>",
            "<svg width=\"15em\" height=\"9em\" viewBox=\"0 0 79.375 47.625\" xmlns=\"http://www.w3.org/2000/svg\"><text style=\"line-height:1.25;\" x=\"16.946\" y=\"50.619\" transform=\"rotate(-15.928)\" font-size=\"4.233\" font-family=\"Arial\" letter-spacing=\"0\" word-spacing=\"0\" fill=\"#4d4d4d\" stroke-width=\".265\"><tspan x=\"16.946\" y=\"50.619\">${:b} cm</tspan></text><path d=\"M32.94 26.045l21.727 6.932-44.155 10.356z\" fill=\"#e3dedb\" stroke=\"#000\" stroke-width=\".529\" stroke-linecap=\"round\" stroke-linejoin=\"round\" stroke-dasharray=\"2.117 2.117\"/><path d=\"M10.512 43.333l44.155-10.356M32.94 1.703l21.727 31.274M32.94 1.703l-22.428 41.63\" fill=\"none\" stroke=\"#000\" stroke-width=\".529\" stroke-linecap=\"round\"/><text style=\"line-height:1.25;\" x=\"38.272\" y=\"-16.22\" transform=\"matrix(.365 .9104 -.95958 .3463 0 0)\" font-size=\"3.17\" font-family=\"Arial\" letter-spacing=\"0\" word-spacing=\"0\" stroke-width=\".265\"><tspan x=\"38.272\" y=\"-16.22\">${:a} cm</tspan></text><text style=\"line-height:1.25;\" x=\"53.818\" y=\"14.124\" font-size=\"4.233\" font-family=\"Arial\" letter-spacing=\"0\" word-spacing=\"0\" fill=\"#4d4d4d\" stroke-width=\".265\"><tspan x=\"53.818\" y=\"14.124\">${:h} cm</tspan></text><path d=\"M36.783 36.953l-3.844-10.908\" fill=\"none\" stroke=\"#000\" stroke-width=\".265\" stroke-linecap=\"round\" stroke-dasharray=\".794 .794\"/><path d=\"M36.193 34.879l2.885-.727.891 2.158\" fill=\"none\" stroke=\"#000\" stroke-width=\".397\"/><path d=\"M32.94 1.703v24.342\" fill=\"none\" stroke=\"#000\" stroke-width=\".529\" stroke-linecap=\"round\" stroke-dasharray=\"1.587 1.587\"/><path d=\"M62.12 14.992c-18.218-.226-28.175 1.698-28.175 1.698M33.068 24.554l1.358.424-.028 1.556M33.068 24.554l-1.244.933v1.386\" fill=\"none\" stroke=\"#000\" stroke-width=\".265\"/></svg>"
        ]},
        "vars":{
            "triple":["a","b","h"],
            "a0":"1_5",
            "b0":"1_5",
            "h0":"1_5",
            "a":"${:triple=='a'?:a0*3::a0}",
            "b":"${:triple=='b'?:b0*3::b0}",
            "h":"${:triple=='h'?:h0*3::h0}",
            "v":"${:a*:b*:h/6}",
            "f":"0_2"},
        "figure":{"type":"svg", "content":"${:figures[:f]}"},
        "shortq":"Volume ?",
        "question": "Quel est le volume de la pyramide à base triangulaire ?",
        "answer":"Volume de la pyramide à base triangulaire <br>$$V=\\dfrac{\\dfrac{c\\times h}2 \\times H}3=\\color{red}{${:v}~cm^3}$$",
        "value":["${:v}~cm^3", "${:v}", "${:v}cm^3"]
    },{
        "name":"Volume d'un cône",
        "consts":{
            "figures":[
                "<svg width='15em' height='9em' viewBox='0 0 79.375 47.625' xmlns='http://www.w3.org/2000/svg'><defs><marker id='prefix__a' refX='0' refY='0' orient='auto' overflow='visible'><path d='M-4 0l-2 2 7-2-7-2 2 2z' fill-rule='evenodd' fill='context-stroke' stroke='context-stroke' stroke-width='.4pt'/></marker></defs><path d='M35.821 37.384l13.631 3.91' fill='none' stroke='#000' stroke-width='.529' stroke-linecap='round' stroke-dasharray='2.117 2.117'/><text style='line-height:1.25;;text-align:center' x='52.526' y='24.213' transform='rotate(16.207)' font-size='4.233' font-family='Arial' letter-spacing='0' word-spacing='0' text-anchor='middle' stroke-width='.265'><tspan style='text-align:center' x='52.526' y='24.213'>${:r} cm</tspan></text><path d='M54.78 37.367a18.839 5.666 0 01-9.42 4.906 18.839 5.666 0 01-18.839 0 18.839 5.666 0 01-9.42-4.906' fill='none' stroke='#000' stroke-width='.539' stroke-linecap='round' stroke-linejoin='round'/><path d='M17.102 37.32a18.839 5.666 0 0118.915-5.62 18.839 5.666 0 0118.762 5.666' fill='none' stroke='#000' stroke-width='.539' stroke-linecap='round' stroke-linejoin='round' stroke-dasharray='2.156 2.156'/><path d='M35.821 37.335V6.134' fill='none' stroke='#000' stroke-width='.529' stroke-linecap='round' stroke-dasharray='4.233 2.117'/><text style='line-height:1.25;' x='48.255' y='19.113' font-size='4.233' font-family='Arial' letter-spacing='0' word-spacing='0' stroke-width='.265'><tspan x='48.255' y='19.113'>${:h} cm</tspan></text><path d='M35.821 6.134l-18.518 30.47M35.821 6.134l18.853 30.602' fill='none' stroke='#000' stroke-width='.529' stroke-linecap='round'/><path d='M54.33 19.686c-8.797.115-16.964 3.381-16.964 3.381' fill='none' stroke='#000' stroke-width='.265' marker-end='url(#prefix__a)'/></svg>",
                "<svg width='15em' height='9em' viewBox='0 0 79.375 47.625' xmlns='http://www.w3.org/2000/svg'><defs><marker id='prefix__a' refX='0' refY='0' orient='auto' overflow='visible'><path d='M-5.231-2.42L1.324-.01-5.23 2.401c1.047-1.423 1.041-3.37 0-4.821z' stroke='context-stroke' fill-rule='evenodd' fill='context-stroke' stroke-width='.375' stroke-linejoin='round'/></marker></defs><path d='M22.87 33.324l26.582 7.97' fill='none' stroke='#000' stroke-width='.529' stroke-linecap='round' stroke-dasharray='2.117 2.117'/><text style='line-height:1.25;text-align:center' x='40.899' y='31.977' transform='rotate(13.103)' font-size='4.233' font-family='Arial' letter-spacing='0' word-spacing='0' text-anchor='middle' stroke-width='.265'><tspan style='text-align:center' x='40.899' y='31.977'>${:d} cm</tspan></text><path d='M54.78 37.367a18.839 5.666 0 01-9.42 4.906 18.839 5.666 0 01-18.839 0 18.839 5.666 0 01-9.42-4.906' fill='none' stroke='#000' stroke-width='.539' stroke-linecap='round' stroke-linejoin='round'/><path d='M17.102 37.32a18.839 5.666 0 0118.915-5.62 18.839 5.666 0 0118.762 5.666' fill='none' stroke='#000' stroke-width='.539' stroke-linecap='round' stroke-linejoin='round' stroke-dasharray='2.156 2.156'/><path d='M35.957 36.955V5.95' fill='none' stroke='#000' stroke-width='.529' stroke-linecap='round'/><text style='line-height:1.25;' x='54.33' y='19.256' font-size='4.233' font-family='Arial' letter-spacing='0' word-spacing='0' stroke-width='.265'><tspan x='54.33' y='19.256'>${:h} cm</tspan></text><path d='M35.957 5.95L17.28 36.535M35.957 5.95l18.679 30.585' fill='none' stroke='#000' stroke-width='.529' stroke-linecap='round'/><path d='M64.76 19.858c-21.261-.43-26.735 2.837-26.735 2.837' fill='none' stroke='#000' stroke-width='.265' marker-end='url(#prefix__a)'/></svg>"
            ]
        },
        "vars":{
            "triple":["r","h"],
            "choixRorD":"0_1",
            "r0":"1_3",
            "r":"${:triple=='r'?:r0*3:'1_5'}",
            "d":"${2*:r}",
            "h0":"1_5",
            "h":"${:triple=='h'?:h0*3:'1_10'}",
            "v":"${:r*:r*:h/3}\\pi"
        },
        "figure":{"type":"svg","content":"${:figures[:choixRorD]}"},
        "question":"Quel est le volume exact du cône ?",
        "answer":"Volume de la base circulaire ${:choixRorD==0?'de rayon':'de diamètre'} $$${:choixRorD==0?:r::d}$$<br>$$\\dfrac{\\pi\\times r^2\\times h}3= \\color{red}{${:v}}~cm^3$$",
        "value":["${:v}~cm^3", "${:v}", "${:v}cm^3"]
    }]
}