<?xml version="1.0" encoding="UTF-8" standalone="no"?>
<!-- Created with Inkscape (http://www.inkscape.org/) -->

<svg
   width="1093.7327"
   height="947.55756"
   viewBox="0 0 289.38343 250.70794"
   version="1.1"
   id="svg5"
   inkscape:version="1.1.2 (b8e25be833, 2022-02-05)"
   sodipodi:docname="triominos 16.svg"
   xmlns:inkscape="http://www.inkscape.org/namespaces/inkscape"
   xmlns:sodipodi="http://sodipodi.sourceforge.net/DTD/sodipodi-0.dtd"
   xmlns="http://www.w3.org/2000/svg"
   xmlns:svg="http://www.w3.org/2000/svg">
  <sodipodi:namedview
     id="namedview7"
     pagecolor="#ffffff"
     bordercolor="#666666"
     borderopacity="1.0"
     inkscape:pageshadow="2"
     inkscape:pageopacity="0.0"
     inkscape:pagecheckerboard="0"
     inkscape:document-units="mm"
     showgrid="false"
     units="px"
     fit-margin-top="0"
     fit-margin-left="0"
     fit-margin-right="0"
     fit-margin-bottom="0"
     inkscape:zoom="1.860573"
     inkscape:cx="546.6058"
     inkscape:cy="473.77878"
     inkscape:window-width="3840"
     inkscape:window-height="2054"
     inkscape:window-x="-11"
     inkscape:window-y="-11"
     inkscape:window-maximized="1"
     inkscape:current-layer="layer1" />
  <defs
     id="defs2" />
  <g
     inkscape:label="Calque 1"
     inkscape:groupmode="layer"
     id="layer1"
     transform="translate(-58.097729,-11.017491)">
    <path
       sodipodi:type="star"
       style="fill:#ffffff;stroke:#1a1a1a;stroke-width:2.66667;stroke-linecap:round;stroke-linejoin:round"
       id="path846"
       inkscape:flatsided="true"
       sodipodi:sides="3"
       sodipodi:cx="453.31409"
       sodipodi:cy="390.9314"
       sodipodi:r1="157.48183"
       sodipodi:r2="78.740913"
       sodipodi:arg1="0.52359878"
       sodipodi:arg2="1.5707963"
       inkscape:rounded="0"
       inkscape:randomized="0"
       d="m 589.69735,469.67231 -272.76653,0 136.38327,-236.22274 z"
       transform="matrix(0.26458333,0,0,0.26458333,46.765343,12.103971)"
       inkscape:transform-center-x="1.5110469e-06"
       inkscape:transform-center-y="-10.416768" />
    <path
       sodipodi:type="star"
       style="fill:#ffffff;stroke:#1a1a1a;stroke-width:2.66667;stroke-linecap:round;stroke-linejoin:round"
       id="path846-7"
       inkscape:flatsided="true"
       sodipodi:sides="3"
       sodipodi:cx="453.31409"
       sodipodi:cy="390.9314"
       sodipodi:r1="157.48183"
       sodipodi:r2="78.740913"
       sodipodi:arg1="0.52359878"
       sodipodi:arg2="1.5707963"
       inkscape:rounded="0"
       inkscape:randomized="0"
       transform="matrix(0.26458333,0,0,0.26458333,82.850083,-50.396631)"
       inkscape:transform-center-x="1.5110469e-06"
       inkscape:transform-center-y="-10.416768"
       d="m 589.69735,469.67231 -272.76653,0 136.38327,-236.22274 z" />
    <path
       sodipodi:type="star"
       style="fill:#ffffff;stroke:#1a1a1a;stroke-width:2.66667;stroke-linecap:round;stroke-linejoin:round"
       id="path928"
       inkscape:flatsided="true"
       sodipodi:sides="3"
       sodipodi:cx="453.31409"
       sodipodi:cy="390.9314"
       sodipodi:r1="157.48183"
       sodipodi:r2="78.740913"
       sodipodi:arg1="0.52359878"
       sodipodi:arg2="1.5707963"
       inkscape:rounded="0"
       inkscape:randomized="0"
       d="m 589.69735,469.67231 -272.76653,0 136.38327,-236.22274 z"
       transform="matrix(-0.26458333,0,0,-0.26458333,322.72878,198.1383)"
       inkscape:transform-center-x="1.3332569e-06"
       inkscape:transform-center-y="10.416769" />
    <text
       xml:space="preserve"
       style="font-size:4.23333px;line-height:1.25;font-family:Arial;-inkscape-font-specification:Arial;letter-spacing:0px;word-spacing:0px;stroke-width:0.264583"
       x="156.43465"
       y="110.76968"
       id="text2178"><tspan
         sodipodi:role="line"
         id="tspan2176"
         style="stroke-width:0.264583"
         x="156.43465"
         y="110.76968" /></text>
    <path
       sodipodi:type="star"
       style="fill:#ffffff;stroke:#1a1a1a;stroke-width:2.66667;stroke-linecap:round;stroke-linejoin:round"
       id="path846-1"
       inkscape:flatsided="true"
       sodipodi:sides="3"
       sodipodi:cx="453.31409"
       sodipodi:cy="390.9314"
       sodipodi:r1="157.48183"
       sodipodi:r2="78.740913"
       sodipodi:arg1="0.52359878"
       sodipodi:arg2="1.5707963"
       inkscape:rounded="0"
       inkscape:randomized="0"
       transform="matrix(0.26458333,0,0,0.26458333,10.680601,74.604572)"
       inkscape:transform-center-x="1.5110469e-06"
       inkscape:transform-center-y="-10.416768"
       d="m 589.69735,469.67231 -272.76653,0 136.38327,-236.22274 z" />
    <path
       sodipodi:type="star"
       style="fill:#ffffff;stroke:#1a1a1a;stroke-width:2.66667;stroke-linecap:round;stroke-linejoin:round"
       id="path928-5"
       inkscape:flatsided="true"
       sodipodi:sides="3"
       sodipodi:cx="453.31409"
       sodipodi:cy="390.9314"
       sodipodi:r1="157.48183"
       sodipodi:r2="78.740913"
       sodipodi:arg1="0.52359878"
       sodipodi:arg2="1.5707963"
       inkscape:rounded="0"
       inkscape:randomized="0"
       transform="matrix(-0.26458333,0,0,-0.26458333,286.64404,260.6389)"
       inkscape:transform-center-x="1.3332569e-06"
       inkscape:transform-center-y="10.416769"
       d="m 589.69735,469.67231 -272.76653,0 136.38327,-236.22274 z" />
    <path
       sodipodi:type="star"
       style="fill:#ffffff;stroke:#1a1a1a;stroke-width:2.66667;stroke-linecap:round;stroke-linejoin:round"
       id="path846-3"
       inkscape:flatsided="true"
       sodipodi:sides="3"
       sodipodi:cx="453.31409"
       sodipodi:cy="390.9314"
       sodipodi:r1="157.48183"
       sodipodi:r2="78.740913"
       sodipodi:arg1="0.52359878"
       sodipodi:arg2="1.5707963"
       inkscape:rounded="0"
       inkscape:randomized="0"
       transform="matrix(0.26458333,0,0,0.26458333,118.93482,12.103972)"
       inkscape:transform-center-x="1.5110469e-06"
       inkscape:transform-center-y="-10.416768"
       d="m 589.69735,469.67231 -272.76653,0 136.38327,-236.22274 z" />
    <path
       sodipodi:type="star"
       style="fill:#ffffff;stroke:#1a1a1a;stroke-width:2.66667;stroke-linecap:round;stroke-linejoin:round"
       id="path846-1-4"
       inkscape:flatsided="true"
       sodipodi:sides="3"
       sodipodi:cx="453.31409"
       sodipodi:cy="390.9314"
       sodipodi:r1="157.48183"
       sodipodi:r2="78.740913"
       sodipodi:arg1="0.52359878"
       sodipodi:arg2="1.5707963"
       inkscape:rounded="0"
       inkscape:randomized="0"
       transform="matrix(0.26458333,0,0,0.26458333,82.850074,74.604578)"
       inkscape:transform-center-x="1.5110469e-06"
       inkscape:transform-center-y="-10.416768"
       d="m 589.69735,469.67231 -272.76653,0 136.38327,-236.22274 z" />
    <path
       sodipodi:type="star"
       style="fill:#ffffff;stroke:#1a1a1a;stroke-width:2.66667;stroke-linecap:round;stroke-linejoin:round"
       id="path846-1-4-1"
       inkscape:flatsided="true"
       sodipodi:sides="3"
       sodipodi:cx="453.31409"
       sodipodi:cy="390.9314"
       sodipodi:r1="157.48183"
       sodipodi:r2="78.740913"
       sodipodi:arg1="0.52359878"
       sodipodi:arg2="1.5707963"
       inkscape:rounded="0"
       inkscape:randomized="0"
       transform="matrix(0.26458333,0,0,0.26458333,155.01956,74.604571)"
       inkscape:transform-center-x="1.5110469e-06"
       inkscape:transform-center-y="-10.416768"
       d="m 589.69735,469.67231 -272.76653,0 136.38327,-236.22274 z" />
    <path
       sodipodi:type="star"
       style="fill:#ffffff;stroke:#1a1a1a;stroke-width:2.66667;stroke-linecap:round;stroke-linejoin:round"
       id="path928-5-1"
       inkscape:flatsided="true"
       sodipodi:sides="3"
       sodipodi:cx="453.31409"
       sodipodi:cy="390.9314"
       sodipodi:r1="157.48183"
       sodipodi:r2="78.740913"
       sodipodi:arg1="0.52359878"
       sodipodi:arg2="1.5707963"
       inkscape:rounded="0"
       inkscape:randomized="0"
       transform="matrix(-0.26458333,0,0,-0.26458333,358.81351,260.6389)"
       inkscape:transform-center-x="1.3332569e-06"
       inkscape:transform-center-y="10.416769"
       d="m 589.69735,469.67231 -272.76653,0 136.38327,-236.22274 z" />
    <path
       sodipodi:type="star"
       style="fill:#ffffff;stroke:#1a1a1a;stroke-width:2.66667;stroke-linecap:round;stroke-linejoin:round"
       id="path4277"
       inkscape:flatsided="true"
       sodipodi:sides="3"
       sodipodi:cx="453.31409"
       sodipodi:cy="390.9314"
       sodipodi:r1="157.48183"
       sodipodi:r2="78.740913"
       sodipodi:arg1="0.52359878"
       sodipodi:arg2="1.5707963"
       inkscape:rounded="0"
       inkscape:randomized="0"
       transform="matrix(0.26458333,0,0,0.26458333,-25.404131,137.10517)"
       inkscape:transform-center-x="1.5110469e-06"
       inkscape:transform-center-y="-10.416768"
       d="m 589.69735,469.67231 -272.76653,0 136.38327,-236.22274 z" />
    <path
       sodipodi:type="star"
       style="fill:#ffffff;stroke:#1a1a1a;stroke-width:2.66667;stroke-linecap:round;stroke-linejoin:round"
       id="path4279"
       inkscape:flatsided="true"
       sodipodi:sides="3"
       sodipodi:cx="453.31409"
       sodipodi:cy="390.9314"
       sodipodi:r1="157.48183"
       sodipodi:r2="78.740913"
       sodipodi:arg1="0.52359878"
       sodipodi:arg2="1.5707963"
       inkscape:rounded="0"
       inkscape:randomized="0"
       transform="matrix(-0.26458333,0,0,-0.26458333,250.55931,323.1395)"
       inkscape:transform-center-x="1.3332569e-06"
       inkscape:transform-center-y="10.416769"
       d="m 589.69735,469.67231 -272.76653,0 136.38327,-236.22274 z" />
    <path
       sodipodi:type="star"
       style="fill:#ffffff;stroke:#1a1a1a;stroke-width:2.66667;stroke-linecap:round;stroke-linejoin:round"
       id="path4281"
       inkscape:flatsided="true"
       sodipodi:sides="3"
       sodipodi:cx="453.31409"
       sodipodi:cy="390.9314"
       sodipodi:r1="157.48183"
       sodipodi:r2="78.740913"
       sodipodi:arg1="0.52359878"
       sodipodi:arg2="1.5707963"
       inkscape:rounded="0"
       inkscape:randomized="0"
       transform="matrix(0.26458333,0,0,0.26458333,46.765342,137.10518)"
       inkscape:transform-center-x="1.5110469e-06"
       inkscape:transform-center-y="-10.416768"
       d="m 589.69735,469.67231 -272.76653,0 136.38327,-236.22274 z" />
    <path
       sodipodi:type="star"
       style="fill:#ffffff;stroke:#1a1a1a;stroke-width:2.66667;stroke-linecap:round;stroke-linejoin:round"
       id="path4283"
       inkscape:flatsided="true"
       sodipodi:sides="3"
       sodipodi:cx="453.31409"
       sodipodi:cy="390.9314"
       sodipodi:r1="157.48183"
       sodipodi:r2="78.740913"
       sodipodi:arg1="0.52359878"
       sodipodi:arg2="1.5707963"
       inkscape:rounded="0"
       inkscape:randomized="0"
       transform="matrix(0.26458333,0,0,0.26458333,118.93483,137.10517)"
       inkscape:transform-center-x="1.5110469e-06"
       inkscape:transform-center-y="-10.416768"
       d="m 589.69735,469.67231 -272.76653,0 136.38327,-236.22274 z" />
    <path
       sodipodi:type="star"
       style="fill:#ffffff;stroke:#1a1a1a;stroke-width:2.66667;stroke-linecap:round;stroke-linejoin:round"
       id="path4285"
       inkscape:flatsided="true"
       sodipodi:sides="3"
       sodipodi:cx="453.31409"
       sodipodi:cy="390.9314"
       sodipodi:r1="157.48183"
       sodipodi:r2="78.740913"
       sodipodi:arg1="0.52359878"
       sodipodi:arg2="1.5707963"
       inkscape:rounded="0"
       inkscape:randomized="0"
       transform="matrix(-0.26458333,0,0,-0.26458333,322.72878,323.1395)"
       inkscape:transform-center-x="1.3332569e-06"
       inkscape:transform-center-y="10.416769"
       d="m 589.69735,469.67231 -272.76653,0 136.38327,-236.22274 z" />
    <path
       sodipodi:type="star"
       style="fill:#ffffff;stroke:#1a1a1a;stroke-width:2.66667;stroke-linecap:round;stroke-linejoin:round"
       id="path4287"
       inkscape:flatsided="true"
       sodipodi:sides="3"
       sodipodi:cx="453.31409"
       sodipodi:cy="390.9314"
       sodipodi:r1="157.48183"
       sodipodi:r2="78.740913"
       sodipodi:arg1="0.52359878"
       sodipodi:arg2="1.5707963"
       inkscape:rounded="0"
       inkscape:randomized="0"
       transform="matrix(0.26458333,0,0,0.26458333,191.10431,137.10517)"
       inkscape:transform-center-x="1.5110469e-06"
       inkscape:transform-center-y="-10.416768"
       d="m 589.69735,469.67231 -272.76653,0 136.38327,-236.22274 z" />
    <path
       sodipodi:type="star"
       style="fill:#ffffff;stroke:#1a1a1a;stroke-width:2.66667;stroke-linecap:round;stroke-linejoin:round"
       id="path4289"
       inkscape:flatsided="true"
       sodipodi:sides="3"
       sodipodi:cx="453.31409"
       sodipodi:cy="390.9314"
       sodipodi:r1="157.48183"
       sodipodi:r2="78.740913"
       sodipodi:arg1="0.52359878"
       sodipodi:arg2="1.5707963"
       inkscape:rounded="0"
       inkscape:randomized="0"
       transform="matrix(-0.26458333,0,0,-0.26458333,394.89826,323.1395)"
       inkscape:transform-center-x="1.3332569e-06"
       inkscape:transform-center-y="10.416769"
       d="m 589.69735,469.67231 -272.76653,0 136.38327,-236.22274 z" />
    <g
       id="g17726">
      <text
         xml:space="preserve"
         style="font-size:5.64444px;line-height:1.25;font-family:Arial;-inkscape-font-specification:Arial;text-align:center;letter-spacing:0px;word-spacing:0px;text-anchor:middle;stroke-width:0.264583"
         x="95.399384"
         y="257.84848"
         id="text14829"><tspan
           sodipodi:role="line"
           id="tspan14827"
           style="font-size:5.64444px;text-align:center;text-anchor:middle;stroke-width:0.264583"
           x="95.399384"
           y="257.84848">${D[11]}</tspan></text>
      <text
         xml:space="preserve"
         style="font-size:5.64444px;line-height:1.25;font-family:Arial;-inkscape-font-specification:Arial;text-align:center;letter-spacing:0px;word-spacing:0px;text-anchor:middle;stroke-width:0.264583"
         x="160.5856"
         y="-184.35106"
         id="text14843"
         transform="rotate(120)"><tspan
           sodipodi:role="line"
           id="tspan14841"
           style="font-size:5.64444px;text-align:center;text-anchor:middle;stroke-width:0.264583"
           x="160.5856"
           y="-184.35106">${D[0]}</tspan></text>
      <text
         xml:space="preserve"
         style="font-size:5.64444px;line-height:1.25;font-family:Arial;-inkscape-font-specification:Arial;text-align:center;letter-spacing:0px;word-spacing:0px;text-anchor:middle;stroke-width:0.264583"
         x="-255.01714"
         y="-20.549984"
         id="text14851"
         transform="rotate(-120)"><tspan
           sodipodi:role="line"
           id="tspan14849"
           style="font-size:5.64444px;text-align:center;text-anchor:middle;stroke-width:0.264583"
           x="-255.01714"
           y="-20.549984">${Q[12]}</tspan></text>
    </g>
    <g
       id="g17718">
      <text
         xml:space="preserve"
         style="font-size:5.64444px;line-height:1.25;font-family:Arial;-inkscape-font-specification:Arial;text-align:center;letter-spacing:0px;word-spacing:0px;text-anchor:middle;stroke-width:0.264583"
         x="-131.30843"
         y="-202.26857"
         id="text7879"
         transform="scale(-1)"><tspan
           sodipodi:role="line"
           id="tspan7877"
           style="font-size:5.64444px;text-align:center;text-anchor:middle;stroke-width:0.264583"
           x="-131.30843"
           y="-202.26857">${R[9]}</tspan></text>
      <text
         xml:space="preserve"
         style="font-size:5.64444px;line-height:1.25;font-family:Arial;-inkscape-font-specification:Arial;text-align:center;letter-spacing:0px;word-spacing:0px;text-anchor:middle;stroke-width:0.264583"
         x="-126.00255"
         y="240.22581"
         id="text14847"
         transform="rotate(-60)"><tspan
           sodipodi:role="line"
           id="tspan14845"
           style="font-size:5.64444px;text-align:center;text-anchor:middle;stroke-width:0.264583"
           x="-126.00255"
           y="240.22581">$[Q[13]}</tspan></text>
      <text
         xml:space="preserve"
         style="font-size:5.64444px;line-height:1.25;font-family:Arial;-inkscape-font-specification:Arial;text-align:center;letter-spacing:0px;word-spacing:0px;text-anchor:middle;stroke-width:0.264583"
         x="255.32585"
         y="14.369742"
         id="text14855"
         transform="rotate(60)"><tspan
           sodipodi:role="line"
           id="tspan14853"
           style="font-size:5.64444px;text-align:center;text-anchor:middle;stroke-width:0.264583"
           x="255.32585"
           y="14.369742">${R[12]}</tspan></text>
    </g>
  </g>
</svg>
